Name,WeightClassKg,Division,Best3SquatKg,Best3BenchKg,Best3DeadliftKg,TotalKg,Sex,Event,Equipment,Place,State
Hank Baes,82.5,M-O,,115.67,,115.67,M,B,Single-ply,3,
Ralph Camarre,75,M-M,,147.42,,147.42,M,B,Single-ply,1,
Sam Scapelliti,82.5,M-O,,161.03,,161.03,M,B,Single-ply,1,
Matt Wohleben,82.5,M-O,,138.35,,138.35,M,B,Single-ply,2,
Mike Burke,90,M-SM,,163.29,,163.29,M,B,Single-ply,1,
Andy Galkowski,90,M-M6,,83.91,,83.91,M,B,Single-ply,1,
David Cronhite,90,M-M,,147.42,,147.42,M,B,Single-ply,1,
Dan Beaudoin,110,M-M,,165.56,,165.56,M,B,Single-ply,1,
Mike Wohleben,82.5,M-M,,136.08,,136.08,M,B,Single-ply,1,
