Division,WeightClassKg,Place,Name,Team,BodyweightKg,Best3SquatKg,Best3BenchKg,Best3DeadliftKg,TotalKg,Equipment,Event,Sex
Boys,55.79,1,Troy Morales,Floydada,51.8,149.69,86.18,147.42,383.29,Single-ply,SBD,M
Boys,51.71,2,Marshall Chappell,Seminole,48.72,122.47,83.91,124.74,331.12,Single-ply,SBD,M
Boys,51.71,3,Shimar Jennings,Plainview,49.8,108.86,63.5,147.42,319.78,Single-ply,SBD,M
Boys,51.71,4,Jonathon Valderas,Levelland,51.71,113.4,70.31,129.27,312.98,Single-ply,SBD,M
Boys,51.71,5,Ever Trejo,Sunray,49.9,88.45,65.77,111.13,265.35,Single-ply,SBD,M
Boys,55.79,6,Trent Morgan,Amarillo Highland Park,51.89,90.72,58.97,99.79,249.48,Single-ply,SBD,M
Boys,51.71,7,Wesley Payton,Lamesa,48.53,83.91,56.7,102.06,242.67,Single-ply,SBD,M
Boys,51.71,DQ,Ivan Antura,Plainview,43.91,83.91,47.63,106.59,,Single-ply,SBD,M
Boys,51.71,DQ,Adrian Flores,Plainview,51.71,77.11,38.56,72.57,,Single-ply,SBD,M
Boys,55.79,1,Jamie Salgado,Plainview,54.34,192.78,90.72,204.12,487.61,Single-ply,SBD,M
Boys,55.79,2,Ken Crawford,Childress,55.34,131.54,83.91,140.61,356.07,Single-ply,SBD,M
Boys,59.87,3,Levi Mills,Levelland,55.97,108.86,63.5,117.93,290.3,Single-ply,SBD,M
Boys,55.79,4,David Denton,Wolfforth Frenship,55.07,95.25,56.7,115.67,267.62,Single-ply,SBD,M
Boys,59.87,5,Braden Aguirre,Childress,55.88,99.79,68.04,99.79,267.62,Single-ply,SBD,M
Boys,59.87,6,Brian Gomez,Lubbock Monterey,55.97,86.18,74.84,106.59,267.62,Single-ply,SBD,M
Boys,59.87,1,Angel Guerrero,Levelland,58.69,167.83,88.45,172.37,428.64,Single-ply,SBD,M
Boys,59.87,2,Ben Alvarez,Floydada,59.51,149.69,102.06,165.56,417.3,Single-ply,SBD,M
Boys,59.87,3,Jamie Longoria,Levelland,56.06,142.88,81.65,170.1,394.63,Single-ply,SBD,M
Boys,59.87,4,Ben Merworth,Big Spring,59.69,136.08,106.59,145.15,387.82,Single-ply,SBD,M
Boys,59.87,5,Coe Kubicek,Seminole,59.15,131.54,102.06,140.61,374.21,Single-ply,SBD,M
Boys,59.87,6,Marcus Renteria,Lamesa,56.97,106.59,79.38,124.74,310.71,Single-ply,SBD,M
Boys,59.87,7,Johnny Gonzales,Lubbock Monterey,57.15,113.4,70.31,122.47,306.17,Single-ply,SBD,M
Boys,59.87,8,Jordan Magars,Childress,56.06,92.99,74.84,117.93,285.76,Single-ply,SBD,M
Boys,59.87,9,Nolan Willingham,Canyon Randall,56.97,77.11,58.97,102.06,238.14,Single-ply,SBD,M
Boys,59.87,10,Caelon Gibson,Lamesa,57.52,79.38,52.16,92.99,224.53,Single-ply,SBD,M
Boys,67.13,1,Davy Salazar,Childress,65.86,142.88,115.67,174.63,433.18,Single-ply,SBD,M
Boys,67.13,2,Zach Constancio,Canyon Randall,65.86,145.15,95.25,158.76,399.16,Single-ply,SBD,M
Boys,67.13,3,Eric Davis,Lubbock Monterey,64.68,145.15,81.65,165.56,392.36,Single-ply,SBD,M
Boys,67.13,4,Jake Hernandez,Big Spring,62.32,142.88,97.52,147.42,387.82,Single-ply,SBD,M
Boys,67.13,5,Jesse Gonzalez,Levelland,64.86,127.01,111.13,142.88,381.02,Single-ply,SBD,M
Boys,67.13,6,Casey Sanders,Wolfforth Frenship,63.87,147.42,88.45,136.08,371.95,Single-ply,SBD,M
Boys,67.13,7,Chris Muniz,Levelland,63.96,145.15,70.31,154.22,369.68,Single-ply,SBD,M
Boys,67.13,8,Jay Salazar,Amarillo Highland Park,63.87,136.08,86.18,142.88,365.14,Single-ply,SBD,M
Boys,67.13,8,Daniel Diaz,Wolfforth Frenship,64.68,117.93,79.38,117.93,315.25,Single-ply,SBD,M
Boys,67.13,9,Cade Ackerman,Childress,65.23,127.01,79.38,142.88,349.27,Single-ply,SBD,M
Boys,67.13,10,Richard Rodriguez,Friona,65.59,117.93,81.65,149.69,349.27,Single-ply,SBD,M
Boys,67.13,11,Marco Terrones,Friona,60.69,127.01,79.38,140.61,347,Single-ply,SBD,M
Boys,67.13,12,Martin Zambrano,Big Spring,64.14,120.2,86.18,136.08,342.46,Single-ply,SBD,M
Boys,67.13,13,Aarpm Whited,Canyon Randall,64.77,129.27,83.91,127.01,340.19,Single-ply,SBD,M
Boys,67.13,14,Jordan Sircable,Wolfforth Frenship,64.41,133.81,70.31,131.54,335.66,Single-ply,SBD,M
Boys,67.13,15,Parker Owens,Canyon Randall,65.77,117.93,70.31,145.15,333.39,Single-ply,SBD,M
Boys,67.13,16,Ryan Coon,Seminole,60.24,122.47,74.84,122.47,319.78,Single-ply,SBD,M
Boys,67.13,17,Matt Race,Levelland,65.14,111.13,65.77,131.54,308.44,Single-ply,SBD,M
Boys,67.13,18,Doyle Mills,Lubbock Monterey,61.78,106.59,61.23,124.74,292.57,Single-ply,SBD,M
Boys,67.13,19,Kennedy Prescott,Amarillo Highland Park,64.41,102.06,72.57,115.67,290.3,Single-ply,SBD,M
Boys,67.13,20,Dillon Stevens,Wolfforth Frenship,65.86,104.33,70.31,113.4,288.03,Single-ply,SBD,M
Boys,67.13,21,Dimas Rodriguez,Plainview,61.6,90.72,81.65,113.4,285.76,Single-ply,SBD,M
Boys,67.13,22,Victor Plascencia,Lubbock Monterey,63.87,102.06,58.97,106.59,267.62,Single-ply,SBD,M
Boys,74.84,23,Adrian Prieto,Friona,67.31,83.91,54.43,102.06,240.4,Single-ply,SBD,M
Boys,67.13,DQ,Cody Roller,Amarillo Highland Park,66.41,111.13,61.23,142.88,,Single-ply,SBD,M
Boys,67.13,DQ,Julian Celestial,Sunray,65.59,,,,,Single-ply,SBD,M
Boys,67.13,DQ,James Brown,Sunray,64.95,,,,,Single-ply,SBD,M
Boys,82.1,1,Corey Richardson,Levelland,75.07,185.97,122.47,188.24,496.68,Single-ply,SBD,M
Boys,74.84,2,Justin Pichardo,Plainview,74.39,197.31,115.67,181.44,494.42,Single-ply,SBD,M
Boys,74.84,3,Alan Rivera,Plainview,72.12,183.7,106.59,176.9,467.2,Single-ply,SBD,M
Boys,74.84,4,Aaron Khaleeq,Plainview,68.49,176.9,106.59,165.56,449.06,Single-ply,SBD,M
Boys,74.84,5,Brad Thompson,Lubbock Monterey,74.75,170.1,88.45,161.03,419.57,Single-ply,SBD,M
Boys,74.84,6,Serafin Vazquez,Friona,70.4,158.76,86.18,170.1,415.04,Single-ply,SBD,M
Boys,74.84,7,John Flores,Big Spring,70.22,158.76,92.99,158.76,410.5,Single-ply,SBD,M
Boys,74.84,8,Austin Bussell,Canyon Randall,70.4,145.15,97.52,158.76,401.43,Single-ply,SBD,M
Boys,74.84,9,Zach Moore,Lubbock Monterey,69.4,129.27,102.06,167.83,399.16,Single-ply,SBD,M
Boys,74.84,10,Nick Gonzales,Wolfforth Frenship,72.12,142.88,102.06,147.42,392.36,Single-ply,SBD,M
Boys,74.84,11,Andrew Anderson,Childress,74.39,136.08,95.25,158.76,390.09,Single-ply,SBD,M
Boys,74.84,12,Alan Tafoya,Friona,74.03,136.08,90.72,158.76,385.55,Single-ply,SBD,M
Boys,74.84,13,Caleb Morales,Lamesa,71.85,145.15,92.99,142.88,381.02,Single-ply,SBD,M
Boys,74.84,14,Todd Hartley,Canyon Randall,73.48,131.54,88.45,158.76,378.75,Single-ply,SBD,M
Boys,74.84,15,Angel Martinez #9,Lubbock Monterey,67.77,129.27,81.65,156.49,367.41,Single-ply,SBD,M
Boys,74.84,16,Andy Miller #1,Sunray,70.4,136.08,83.91,142.88,362.87,Single-ply,SBD,M
Boys,74.84,17,Jordan Ganaway,Amarillo Highland Park,74.57,136.08,79.38,136.08,351.53,Single-ply,SBD,M
Boys,74.84,18,Justin Hassell,Childress,74.57,124.74,77.11,142.88,344.73,Single-ply,SBD,M
Boys,74.84,19,Nick Runkles,Levelland,73.66,136.08,72.57,133.81,342.46,Single-ply,SBD,M
Boys,74.84,20,Jj Casarez,Levelland,67.49,111.13,92.99,136.08,340.19,Single-ply,SBD,M
Boys,74.84,21,Justin Robinson,Wolfforth Frenship,69.4,136.08,61.23,142.88,340.19,Single-ply,SBD,M
Boys,74.84,22,Clayton Topliff,Canyon Randall,69.76,117.93,74.84,142.88,335.66,Single-ply,SBD,M
Boys,74.84,23,Justin Baca,Canyon Randall,69.58,115.67,74.84,136.08,326.59,Single-ply,SBD,M
Boys,82.1,24,Conner MacNair,Wolfforth Frenship,74.93,120.2,83.91,120.2,324.32,Single-ply,SBD,M
Boys,74.84,25,Lance Mullines,Amarillo Highland Park,69.85,113.4,61.23,136.08,310.71,Single-ply,SBD,M
Boys,74.84,26,Jury Moeller,Anton,71.4,86.18,77.11,136.08,299.37,Single-ply,SBD,M
Boys,74.84,27,William Rattan,Wolfforth Frenship,69.49,102.06,70.31,124.74,297.1,Single-ply,SBD,M
Boys,74.84,28,Eribaldo Delgadillo,Friona,69.94,90.72,47.63,108.86,247.21,Single-ply,SBD,M
Boys,74.84,DQ,Ochan Parra,Big Spring,68.31,129.27,,,,Single-ply,SBD,M
Boys,82.1,1,Aaron Galarza,Levelland,80.2,170.1,113.4,195.04,478.54,Single-ply,SBD,M
Boys,82.1,2,Jansen Riddell,Canyon Randall,82.1,170.1,106.59,195.04,471.74,Single-ply,SBD,M
Boys,82.1,3,Anthony Garcia,Big Spring,78.65,181.44,122.47,165.56,469.47,Single-ply,SBD,M
Boys,82.1,4,Lasalle Washington,Levelland,76.02,181.44,102.06,170.1,453.59,Single-ply,SBD,M
Boys,82.1,5,Kane Isaacks,Levelland,80.47,142.88,104.33,206.38,453.59,Single-ply,SBD,M
Boys,82.1,6,Rex Mathis,Floydada,81.83,165.56,95.25,192.78,453.59,Single-ply,SBD,M
Boys,82.1,7,Pierce Browder,Canyon Randall,79.2,170.1,106.59,167.83,444.52,Single-ply,SBD,M
Boys,82.1,8,Shawn Lindsey,Sunray,81.19,172.37,99.79,142.88,415.04,Single-ply,SBD,M
Boys,82.1,9,Michael Felton,Big Spring,81.65,161.03,102.06,142.88,405.97,Single-ply,SBD,M
Boys,82.1,10,Denver Morris,Childress,81.92,147.42,111.13,147.42,405.97,Single-ply,SBD,M
Boys,82.1,11,Ignacio Jimenez,Lamesa,76.93,133.81,97.52,161.03,392.36,Single-ply,SBD,M
Boys,82.1,12,Tyler Adams,Childress,75.11,136.08,88.45,145.15,369.68,Single-ply,SBD,M
Boys,82.1,13,Clayton Goodwin,Sunray,76.84,142.88,83.91,136.08,362.87,Single-ply,SBD,M
Boys,82.1,14,Sabastian Santiago,Friona,78.74,120.2,68.04,138.35,326.59,Single-ply,SBD,M
Boys,82.1,15,Aidan Wilson,Amarillo Highland Park,81.56,102.06,54.43,117.93,274.42,Single-ply,SBD,M
Boys,82.1,DQ,Manuel Nanez,Sunray,77.56,145.15,,,,Single-ply,SBD,M
Boys,89.81,DQ,Jorge Lozoya,Sunray,82.19,,,,,Single-ply,SBD,M
Boys,99.79,1,Jacob Hinojos,Plainview,90.04,272.16,138.35,263.08,673.58,Single-ply,SBD,M
Boys,89.81,2,Jared Garcia,Plainview,83.01,181.44,95.25,185.97,462.66,Single-ply,SBD,M
Boys,89.81,3,Brandon Gannaway,Amarillo Highland Park,82.92,170.1,90.72,190.51,451.32,Single-ply,SBD,M
Boys,89.81,4,Josh Hull,Sunray,84.46,149.69,92.99,142.88,385.55,Single-ply,SBD,M
Boys,89.81,5,Andrew Mendez,Wolfforth Frenship,87.91,138.35,83.91,149.69,371.95,Single-ply,SBD,M
Boys,89.81,6,Gerardo Uriquidiz,Sunray,85.64,133.81,88.45,124.74,347,Single-ply,SBD,M
Boys,89.81,7,Breck Gross,Childress,89.09,129.27,79.38,122.47,331.12,Single-ply,SBD,M
Boys,89.81,9,Jeremy Zavala,Plainview,87.54,113.4,70.31,129.27,312.98,Single-ply,SBD,M
Boys,89.81,10,Anthony Tapia,Friona,85.64,104.33,72.57,122.47,299.37,Single-ply,SBD,M
Boys,89.81,11,Eddie Campos,Levelland,84.46,95.25,81.65,113.4,290.3,Single-ply,SBD,M
Boys,109.77,1,Daniel Allen,Seminole,99.97,263.08,161.03,206.38,630.49,Single-ply,SBD,M
Boys,99.79,2,Juan DeOchoa,Floydada,98.97,204.12,136.08,233.6,573.79,Single-ply,SBD,M
Boys,99.79,3,Joey York,Wolfforth Frenship,95.25,226.8,117.93,226.8,571.53,Single-ply,SBD,M
Boys,99.79,4,Santiago Fabela,Plainview,94.8,183.7,117.93,176.9,478.54,Single-ply,SBD,M
Boys,99.79,5,Blake Roberts,Canyon Randall,97.98,181.44,113.4,183.7,478.54,Single-ply,SBD,M
Boys,99.79,6,Josh Chapa,Plainview,99.34,174.63,133.81,165.56,474,Single-ply,SBD,M
Boys,99.79,7,Joe Tony Duran,Lamesa,94.26,158.76,122.47,176.9,458.13,Single-ply,SBD,M
Boys,99.79,8,Jesus Rivero,Sunray,90.72,188.24,92.99,158.76,439.98,Single-ply,SBD,M
Boys,99.79,9,Andres Silva,Friona,98.88,172.37,99.79,163.29,435.45,Single-ply,SBD,M
Boys,99.79,10,Danny Montelongo,Plainview,97.7,170.1,92.99,165.56,428.64,Single-ply,SBD,M
Boys,109.77,11,Sergio Vidales,Levelland,99.88,147.42,97.52,183.7,428.64,Single-ply,SBD,M
Boys,99.79,12,Bryce Wheeler,Levelland,93.44,142.88,90.72,158.76,392.36,Single-ply,SBD,M
Boys,99.79,13,Jesse Calderon,Amarillo Highland Park,93.26,158.76,70.31,158.76,387.82,Single-ply,SBD,M
Boys,99.79,14,Colton Acevedo,Big Spring,92.9,158.76,90.72,131.54,381.02,Single-ply,SBD,M
Boys,99.79,15,Nathan Pando,Lubbock,92.26,133.81,97.52,142.88,374.21,Single-ply,SBD,M
Boys,99.79,16,Gilbert Cardona,Lubbock,94.35,136.08,86.18,145.15,367.41,Single-ply,SBD,M
Boys,99.79,17,Jimbo Bentley,Childress,97.25,120.2,86.18,117.93,324.32,Single-ply,SBD,M
Boys,99.79,18,Matt Foster,Wolfforth Frenship,94.89,133.81,58.97,127.01,319.78,Single-ply,SBD,M
Boys,99.79,19,O'Shae Grant,Wolfforth Frenship,99.34,88.45,56.7,113.4,258.55,Single-ply,SBD,M
Boys,99.79,20,Ariel Hernandez,Plainview,92.53,136.08,106.59,,242.67,Single-ply,SB,M
Boys,99.79,DQ,Frank Perez,Plainview,94.71,183.7,92.99,204.12,,Single-ply,SBD,M
Boys,99.79,DQ,Taner Velasquez,Plainview,97.61,226.8,,,,Single-ply,SB,M
Boys,99.79,DQ,Tony Alvarez,Lubbock,92.35,108.86,81.65,,,Single-ply,SB,M
Boys,99.79,DQ,Caleb Lee,Canyon Randall,94.17,158.76,102.06,,,Single-ply,SB,M
Boys,99.79,DQ,Diamond Bailey,Big Spring,94.35,,,,,Single-ply,SB,M
Boys,99.79,DQ,Derrick Anderson,Big Spring,96.71,,,,,Single-ply,SB,M
Boys,99.79,DQ,Steven Galvin,Seminole,99.7,149.69,92.99,,,Single-ply,SB,M
Boys,109.77,1,Wesley Adams,Lubbock Monterey,106.32,210.92,129.27,204.12,544.31,Single-ply,SBD,M
Boys,109.77,2,Ramiro Rodriguez,Lubbock Monterey,101.42,206.38,140.61,192.78,539.77,Single-ply,SBD,M
Boys,109.77,3,Jose Flores,Seminole,108.14,192.78,145.15,192.78,530.7,Single-ply,SBD,M
Boys,109.77,4,Angelo Samarippa,Plainview,101.6,192.78,151.95,183.7,528.44,Single-ply,SBD,M
Boys,109.77,5,Eddie Luna,Levelland,108.23,199.58,124.74,204.12,528.44,Single-ply,SBD,M
Boys,109.77,6,Colton Carey,Wolfforth Frenship,103.06,195.04,129.27,199.58,523.9,Single-ply,SBD,M
Boys,109.77,7,Junior Padilla,Plainview,109.32,195.04,117.93,210.92,523.9,Single-ply,SBD,M
Boys,109.77,8,Chris Cobos,Lubbock,107.05,181.44,129.27,197.31,508.02,Single-ply,SBD,M
Boys,109.77,9,Zach Subealdea,Plainview,101.06,192.78,127.01,181.44,501.22,Single-ply,SBD,M
Boys,109.77,10,Marcos Hinojos,Plainview,106.59,192.78,124.74,165.56,483.08,Single-ply,SBD,M
Boys,109.77,11,Joseph DeOchoa,Floydada,101.51,170.1,106.59,204.12,480.81,Single-ply,SBD,M
Boys,109.77,12,Steven Leyendecker,Plainview,109.77,190.51,90.72,181.44,462.66,Single-ply,SBD,M
Boys,109.77,13,Tanner Henry,Big Spring,107.41,151.95,117.93,172.37,442.25,Single-ply,SBD,M
Boys,109.77,14,John Vanover,Wolfforth Frenship,101.15,163.29,108.86,158.76,430.91,Single-ply,SBD,M
Boys,109.77,15,Riley Clark #2,Seminole,102.51,176.9,104.33,138.35,419.57,Single-ply,SBD,M
Boys,109.77,16,LLoy Holsenbeck,Big Spring,103.6,156.49,111.13,145.15,412.77,Single-ply,SBD,M
Boys,109.77,17,Saul Salazar,Childress,107.59,147.42,102.06,145.15,394.63,Single-ply,SBD,M
Boys,109.77,18,Jorge Flores,Lamesa,102.33,149.69,86.18,151.95,387.82,Single-ply,SBD,M
Boys,109.77,19,Carlos García,Sunray,109.59,145.15,83.91,147.42,376.48,Single-ply,SBD,M
Boys,109.77,20,Austin Wills,Wolfforth Frenship,102.51,136.08,79.38,151.95,367.41,Single-ply,SBD,M
Boys,109.77,21,Michael Madding,Levelland,103.42,136.08,79.38,145.15,360.61,Single-ply,SBD,M
Boys,124.74,1,Michael Garcia,Plainview,110.13,219.99,142.88,208.65,571.53,Single-ply,SBD,M
Boys,124.74,2,Diego Caballero,Lubbock Monterey,122.56,235.87,129.27,201.85,566.99,Single-ply,SBD,M
Boys,124.74,3,Justin Yanez,Big Spring,111.86,226.8,136.08,195.04,557.92,Single-ply,SBD,M
Boys,124.74,4,Taylon Garrett,Anton,111.04,199.58,131.54,199.58,530.7,Single-ply,SBD,M
Boys,124.74,5,Rayce Savage,Wolfforth Frenship,112.67,210.92,113.4,170.1,494.42,Single-ply,SBD,M
Boys,124.74,6,Pernell Parker,Big Spring,116.85,174.63,129.27,167.83,471.74,Single-ply,SBD,M
Boys,124.74,7,Ruben Villegas,Childress,112.4,140.61,127.01,185.97,453.59,Single-ply,SBD,M
Boys,124.74,8,Joey Maldonado,Anton,117.48,167.83,99.79,172.37,439.98,Single-ply,SBD,M
Boys,124.74,9,Santos Rodriguez,Lamesa,113.4,147.42,113.4,172.37,433.18,Single-ply,SBD,M
Boys,124.74,10,Derek Washington,Levelland,117.84,158.76,111.13,158.76,428.64,Single-ply,SBD,M
Boys,124.74,11,Gunner Burklow,Lamesa,111.22,149.69,90.72,149.69,390.09,Single-ply,SBD,M
Boys,124.74,12,Steven Manahan,Levelland,118.57,147.42,104.33,133.81,385.55,Single-ply,SBD,M
Boys,124.74,13,Chris Nunez,Big Spring,117.84,133.81,90.72,158.76,383.29,Single-ply,SBD,M
Boys,124.74,14,Bob Barker,Wolfforth Frenship,111.67,111.13,81.65,145.15,337.93,Single-ply,SBD,M
Boys,124.74,15,Taylor York,Wolfforth Frenship,121.93,104.33,77.11,113.4,294.84,Single-ply,SBD,M
Boys,124.74,DQ,Anthony Martinez #15,Wolfforth Frenship,111.13,,,,,Single-ply,SBD,M
Boys,124.74,DQ,Julio Granillo,Big Spring,110.31,145.15,,,,Single-ply,SBD,M
Boys,124.74+,1,Jonathan Molina,Big Spring,156.67,249.48,172.37,217.72,639.57,Single-ply,SBD,M
Boys,124.74+,2,Al Valderas,Levelland,152.04,249.48,136.08,190.51,576.06,Single-ply,SBD,M
Boys,124.74+,3,Devon Davis-Locke,Big Spring,127.91,172.37,151.95,167.83,492.15,Single-ply,SBD,M
Boys,124.74+,4,Jackson Watkins #2,Big Spring,131.27,158.76,122.47,172.37,453.59,Single-ply,SBD,M
Boys,124.74+,5,Larson Crume,Wolfforth Frenship,133.54,172.37,95.25,158.76,426.38,Single-ply,SBD,M
Boys,124.74+,6,Daniel Meza,Friona,163.84,154.22,92.99,163.29,410.5,Single-ply,SBD,M
Boys,124.74+,7,Josh DeShazo,Lubbock,128.37,142.88,88.45,156.49,387.82,Single-ply,SBD,M
Boys,124.74+,8,AJ Johnson,Canyon Randall,144.97,136.08,97.52,138.35,371.95,Single-ply,SBD,M
Boys,124.74+,DQ,Sawyer Roberts,Big Spring,175,,,,,Single-ply,SBD,M
