Division,WeightClassKg,Place,Name,Team,BodyweightKg,Best3SquatKg,Best3BenchKg,Best3DeadliftKg,TotalKg,Equipment,Event,Sex
Boys,51.71,1,Jeff Smith,Valley Mills,50.71,147.42,79.38,151.95,378.75,Single-ply,SBD,M
Boys,55.79,2,DeVante Graves,Chilton,51.89,108.86,58.97,138.35,306.17,Single-ply,SBD,M
Boys,51.71,3,Baldomero Sanchez,Riesel,51.53,131.54,56.7,115.67,303.91,Single-ply,SBD,M
Boys,51.71,4,Jeremy Alaniz,Riesel,50.26,104.33,56.7,111.13,272.16,Single-ply,SBD,M
Boys,51.71,5,Jon Guzman,China Spring,39.92,90.72,45.36,104.33,240.4,Single-ply,SBD,M
Boys,55.79,6,Storm Snyder,Stephenville,51.89,52.16,34.02,61.23,147.42,Single-ply,SBD,M
Boys,51.71,DQ,Joseph Bravo,Waco Reicher Catholic,51.71,86.18,,,,Single-ply,SBD,M
Boys,59.87,1,Ignacio Alvarado,Alvarado,55.97,136.08,72.57,154.22,362.87,Single-ply,SBD,M
Boys,55.79,2,Dane Rodriguez,Chilton,55.07,136.08,70.31,145.15,351.53,Single-ply,SBD,M
Boys,55.79,3,Bill Nebors,Waco La Vega,55.34,113.4,70.31,133.81,317.51,Single-ply,SBD,M
Boys,55.79,4,Guillermo Olvera,Alvarado,54.88,108.86,63.5,142.88,315.25,Single-ply,SBD,M
Boys,55.79,5,Adrian Rodriguez,Lorena,54.52,113.4,58.97,129.27,301.64,Single-ply,SBD,M
Boys,55.79,6,Jacob Raborn,China Spring,55.34,111.13,54.43,131.54,297.1,Single-ply,SBD,M
Boys,55.79,7,Grady Rhoden,Alvarado,52.53,104.33,54.43,136.08,294.84,Single-ply,SBD,M
Boys,55.79,8,Curtis Evans,Riesel,55.25,120.2,45.36,104.33,269.89,Single-ply,SBD,M
Boys,59.87,1,Josh McCraw,Gatesville,58.42,188.24,92.99,176.9,458.13,Single-ply,SBD,M
Boys,59.87,2,Rey Castro,Waco Reicher Catholic,59.42,163.29,86.18,181.44,430.91,Single-ply,SBD,M
Boys,59.87,3,Donam Johnson,Hubbard,59.33,147.42,68.04,163.29,378.75,Single-ply,SBD,M
Boys,59.87,4,Steven Foster,Riesel,59.78,142.88,77.11,154.22,374.21,Single-ply,SBD,M
Boys,59.87,5,Austin Gilbert,Whitney,59.24,111.13,68.04,149.69,328.85,Single-ply,SBD,M
Boys,59.87,6,Noah Contella,Waco Reicher Catholic,57.61,117.93,72.57,136.08,326.59,Single-ply,SBD,M
Boys,59.87,7,Joey Leavelle,Robinson,57.06,117.93,63.5,131.54,312.98,Single-ply,SBD,M
Boys,59.87,8,Colton Reeves,Valley Mills,58.42,111.13,63.5,124.74,299.37,Single-ply,SBD,M
Boys,59.87,9,Hunter Solano,Waco Reicher Catholic,58.51,113.4,54.43,127.01,294.84,Single-ply,SBD,M
Boys,67.13,10,Myles Robison,Valley Mills,60.06,99.79,65.77,117.93,283.5,Single-ply,SBD,M
Boys,59.87,11,Freddy Hernandez #1,Hearne,57.97,92.99,56.7,120.2,269.89,Single-ply,SBD,M
Boys,59.87,12,Blake Thompson,Stephenville,56.34,90.72,58.97,115.67,265.35,Single-ply,SBD,M
Boys,59.87,DQ,Hunter Barben,Riesel,58.6,102.06,54.43,,,Single-ply,SBD,M
Boys,59.87,DQ,Wesley Barnhill,Lorena,57.24,176.9,102.06,,,Single-ply,SBD,M
Boys,67.13,1,Tyrell Irby,Waco La Vega,67.04,219.99,140.61,254.01,614.62,Single-ply,SBD,M
Boys,67.13,2,Alex Leos,Robinson,66.77,231.33,124.74,226.8,582.87,Single-ply,SBD,M
Boys,67.13,3,Ryan Linkous,Axtell,60.42,195.04,106.59,188.24,489.88,Single-ply,SBD,M
Boys,67.13,4,Nathan Kalil,China Spring,64.32,161.03,102.06,190.51,453.59,Single-ply,SBD,M
Boys,67.13,5,Stephen Mitchell,Robinson,65.41,163.29,88.45,183.7,435.45,Single-ply,SBD,M
Boys,67.13,6,Hunter Work,Robinson,65.68,149.69,102.06,158.76,410.5,Single-ply,SBD,M
Boys,67.13,7,Bradley Walker,Hubbard,67.04,151.95,88.45,163.29,403.7,Single-ply,SBD,M
Boys,67.13,8,Alex O'Neil,Waco Reicher Catholic,66.68,145.15,90.72,163.29,399.16,Single-ply,SBD,M
Boys,67.13,9,Chase McGhee,Gatesville,64.32,154.22,95.25,145.15,394.63,Single-ply,SBD,M
Boys,74.84,10,Kyle Castilleja,Hearne,67.31,136.08,81.65,156.49,374.21,Single-ply,SBD,M
Boys,67.13,11,Marc Martinez,Hearne,64.59,147.42,74.84,142.88,365.14,Single-ply,SBD,M
Boys,67.13,12,Edmond Martin,Axtell,66.41,127.01,77.11,140.61,344.73,Single-ply,SBD,M
Boys,67.13,13,Nick Scocchio,Whitney,60.51,127.01,65.77,136.08,328.85,Single-ply,SBD,M
Boys,67.13,14,Richard Fetzek,Valley Mills,67.04,111.13,65.77,151.95,328.85,Single-ply,SBD,M
Boys,67.13,15,Chris Sheffield,Valley Mills,61.14,108.86,63.5,122.47,294.84,Single-ply,SBD,M
Boys,67.13,16,Isaac Tinnell,Hearne,66.41,102.06,61.23,129.27,292.57,Single-ply,SBD,M
Boys,67.13,17,Max Vines,Waco Reicher Catholic,61.23,106.59,58.97,115.67,281.23,Single-ply,SBD,M
Boys,67.13,18,Logan Kilpatrick,Valley Mills,63.5,104.33,56.7,117.93,278.96,Single-ply,SBD,M
Boys,67.13,DQ,Michael Fitzhugh,Waco Reicher Catholic,67.13,172.37,97.52,,,Single-ply,SBD,M
Boys,74.84,1,Jordan Taylor #1,Waco La Vega,71.85,215.46,136.08,249.48,601.01,Single-ply,SBD,M
Boys,74.84,2,Jesus Jaimes,Riesel,73.66,226.8,131.54,217.72,576.06,Single-ply,SBD,M
Boys,74.84,3,Colton Sehon,Robinson,72.76,215.46,136.08,215.46,566.99,Single-ply,SBD,M
Boys,74.84,4,Bradly Krall,Lorena,74.21,204.12,104.33,195.04,503.49,Single-ply,SBD,M
Boys,74.84,5,Collin Cresson,Lorena,74.75,195.04,117.93,188.24,501.22,Single-ply,SBD,M
Boys,74.84,6,Chris Sosebee,Whitney,68.76,183.7,122.47,183.7,489.88,Single-ply,SBD,M
Boys,74.84,7,Jake Beebe,Valley Mills,73.57,185.97,104.33,192.78,483.08,Single-ply,SBD,M
Boys,74.84,8,Jose Hernandez #20,China Spring,73.57,167.83,122.47,188.24,478.54,Single-ply,SBD,M
Boys,74.84,9,Chris Castlilleja,Hearne,73.75,179.17,113.4,185.97,478.54,Single-ply,SBD,M
Boys,74.84,10,Tyler Johnson,Robinson,73.75,181.44,99.79,181.44,462.66,Single-ply,SBD,M
Boys,74.84,11,Brandon Bordovsky,Axtell,73.48,156.49,97.52,185.97,439.98,Single-ply,SBD,M
Boys,74.84,12,Jacob Martinez,Hearne,73.75,158.76,88.45,192.78,439.98,Single-ply,SBD,M
Boys,74.84,13,Nathan Cornett,Alvarado,74.39,158.76,106.59,172.37,437.72,Single-ply,SBD,M
Boys,74.84,14,Brandon Fortune,Alvarado,71.58,142.88,90.72,195.04,428.64,Single-ply,SBD,M
Boys,74.84,15,Gage Hodges,Valley Mills,72.76,151.95,81.65,158.76,392.36,Single-ply,SBD,M
Boys,74.84,16,Kade Robinson,Lorena,68.13,149.69,79.38,145.15,374.21,Single-ply,SBD,M
Boys,74.84,17,Charlie Wallace,Riesel,73.66,140.61,88.45,133.81,362.87,Single-ply,SBD,M
Boys,82.1,18,Mark Linstorm,Axtell,74.93,136.08,86.18,136.08,358.34,Single-ply,SBD,M
Boys,74.84,19,Arron Ambrose,Alvarado,73.48,124.74,79.38,151.95,356.07,Single-ply,SBD,M
Boys,74.84,20,Brandon Pierce #3,Valley Mills,72.21,140.61,72.57,140.61,353.8,Single-ply,SBD,M
Boys,74.84,21,Robert Onderdonck,Alvarado,68.86,108.86,81.65,127.01,317.51,Single-ply,SBD,M
Boys,74.84,22,Cyan Vaughn,Waco Reicher Catholic,73.03,90.72,68.04,102.06,260.82,Single-ply,SBD,M
Boys,82.1,1,Chandler Snodgrass,Lorena,77.66,204.12,115.67,190.51,510.29,Single-ply,SBD,M
Boys,82.1,2,Ferrin DeHerrera,China Spring,79.02,190.51,113.4,201.85,505.76,Single-ply,SBD,M
Boys,82.1,3,Jack Baskin,Lorena,80.1,199.58,106.59,190.51,496.68,Single-ply,SBD,M
Boys,82.1,4,Andrew Kaluza,Waco Reicher Catholic,79.38,190.51,92.99,192.78,476.27,Single-ply,SBD,M
Boys,82.1,5,Kohl Gueringer,Robinson,81.56,172.37,108.86,192.78,474,Single-ply,SBD,M
Boys,82.1,6,Sean McGrew,Hearne,78.83,170.1,102.06,181.44,453.59,Single-ply,SBD,M
Boys,82.1,7,Aj McFarlane,Valley Mills,77.84,174.63,97.52,174.63,446.79,Single-ply,SBD,M
Boys,82.1,8,Ryan Welch,Whitney,81.65,163.29,102.06,179.17,444.52,Single-ply,SBD,M
Boys,82.1,9,Chase Taylor,Gatesville,78.65,149.69,95.25,172.37,417.3,Single-ply,SBD,M
Boys,82.1,10,Matthew Davis #5,Robinson,80.01,154.22,81.65,174.63,410.5,Single-ply,SBD,M
Boys,82.1,11,Tyler Atkinson,Lorena,81.56,151.95,92.99,158.76,403.7,Single-ply,SBD,M
Boys,82.1,12,Garrett Tanner,Stephenville,77.2,147.42,83.91,156.49,387.82,Single-ply,SBD,M
Boys,82.1,13,Marco Vasquez,Riesel,79.47,136.08,92.99,158.76,387.82,Single-ply,SBD,M
Boys,82.1,14,Kameron Smith,Chilton,81.19,147.42,83.91,131.54,362.87,Single-ply,SBD,M
Boys,82.1,15,Corey Shaw,Chilton,76.29,136.08,65.77,145.15,347,Single-ply,SBD,M
Boys,82.1,16,Gus Burd,Stephenville,80.47,113.4,72.57,136.08,322.05,Single-ply,SBD,M
Boys,82.1,17,Riley Sanchez,Alvarado,80.1,113.4,81.65,122.47,317.51,Single-ply,SBD,M
Boys,89.81,1,Michael Armstrong,China Spring,86.64,238.14,142.88,226.8,607.81,Single-ply,SBD,M
Boys,99.79,2,Michael Martin,China Spring,89.99,222.26,136.08,238.14,596.47,Single-ply,SBD,M
Boys,89.81,3,Dustin Westerfield,Waco La Vega,88.54,226.8,136.08,181.44,544.31,Single-ply,SBD,M
Boys,89.81,4,Cedric Carter,Chilton,88,199.58,122.47,199.58,521.63,Single-ply,SBD,M
Boys,89.81,5,Jakob Coker,Lorena,88.99,195.04,136.08,190.51,521.63,Single-ply,SBD,M
Boys,89.81,6,Kenny Adams,Alvarado,89.72,192.78,120.2,204.12,517.1,Single-ply,SBD,M
Boys,99.79,7,Trent Munden,China Spring,89.99,192.78,117.93,190.51,501.22,Single-ply,SBD,M
Boys,89.81,8,Cj Johnson,Alvarado,86.82,183.7,113.4,192.78,489.88,Single-ply,SBD,M
Boys,89.81,9,Wayne Onderdonck,Alvarado,84.01,154.22,124.74,208.65,487.61,Single-ply,SBD,M
Boys,89.81,10,Mike Drummond,Waco La Vega,85.09,183.7,113.4,185.97,483.08,Single-ply,SBD,M
Boys,89.81,11,Jeremy Riser,Axtell,88.9,176.9,122.47,183.7,483.08,Single-ply,SBD,M
Boys,89.81,12,Josh Freeman,Hubbard,85.46,185.97,102.06,190.51,478.54,Single-ply,SBD,M
Boys,89.81,13,Gerald Horne,Waco La Vega,82.64,163.29,117.93,185.97,467.2,Single-ply,SBD,M
Boys,89.81,14,Alex Gentry,Alvarado,82.83,170.1,102.06,154.22,426.38,Single-ply,SBD,M
Boys,89.81,15,Seth Pomykal,Chilton,87.09,158.76,86.18,163.29,408.23,Single-ply,SBD,M
Boys,89.81,16,Austin Bohannon,Valley Mills,82.55,154.22,97.52,154.22,405.97,Single-ply,SBD,M
Boys,89.81,17,Rowdy Goff,Alvarado,85.23,131.54,108.86,158.76,399.16,Single-ply,SBD,M
Boys,89.81,18,Jacob Miller-Salem,Stephenville,88.18,138.35,102.06,129.27,369.68,Single-ply,SBD,M
Boys,89.81,19,Nick Madison,Stephenville,82.37,124.74,79.38,111.13,315.25,Single-ply,SBD,M
Boys,89.81,DQ,Brady Wilkins,Riesel,87.18,167.83,108.86,,,Single-ply,SBD,M
Boys,99.79,1,Matt Meader,Gatesville,97.34,235.87,140.61,249.48,625.96,Single-ply,SBD,M
Boys,99.79,2,Patrick Martin,China Spring,99.16,217.72,156.49,213.19,587.4,Single-ply,SBD,M
Boys,99.79,3,Aj Castillo,Alvarado,97.7,213.19,136.08,222.26,571.53,Single-ply,SBD,M
Boys,99.79,4,Josh Carroll,Waco La Vega,95.07,204.12,111.13,213.19,528.44,Single-ply,SBD,M
Boys,99.79,5,Shaq Walker,Waco La Vega,92.44,204.12,92.99,226.8,523.9,Single-ply,SBD,M
Boys,99.79,6,Jeff Weir,Waco La Vega,98.07,208.65,111.13,195.04,514.83,Single-ply,SBD,M
Boys,99.79,7,Alex Flores,Hearne,94.35,185.97,104.33,195.04,485.34,Single-ply,SBD,M
Boys,99.79,8,Joseph Reddick,Riesel,98.52,199.58,111.13,170.1,480.81,Single-ply,SBD,M
Boys,99.79,9,Justin Rhyne,Gatesville,96.34,181.44,111.13,165.56,458.13,Single-ply,SBD,M
Boys,99.79,10,Weston Adams,Riesel,91.17,170.1,102.06,158.76,430.91,Single-ply,SBD,M
Boys,99.79,11,Bobby Reed,Gatesville,92.44,147.42,83.91,179.17,410.5,Single-ply,SBD,M
Boys,109.77,12,Jesus Fance,Alvarado,100.02,154.22,102.06,154.22,410.5,Single-ply,SBD,M
Boys,99.79,13,Andrew Sevener,Alvarado,90.9,102.06,88.45,170.1,360.61,Single-ply,SBD,M
Boys,99.79,DQ,Max Jones #2,Stephenville,93.98,124.74,,,,Single-ply,SBD,M
Boys,109.77,1,Garlin Gonzalez,Waco Reicher Catholic,109.77,299.37,181.44,276.69,757.5,Single-ply,SBD,M
Boys,109.77,2,Casey Stripling,Riesel,102.51,233.6,145.15,219.99,598.74,Single-ply,SBD,M
Boys,109.77,3,Hayden Houpt,Whitney,102.24,215.46,136.08,215.46,566.99,Single-ply,SBD,M
Boys,109.77,4,Shurdon Simpson,Chilton,108.68,249.48,131.54,181.44,562.45,Single-ply,SBD,M
Boys,124.74,5,Colton Ridley,Gatesville,110,226.8,145.15,181.44,553.38,Single-ply,SBD,M
Boys,109.77,6,Darius Marton,Axtell,108.68,226.8,120.2,183.7,530.7,Single-ply,SBD,M
Boys,109.77,7,Kris Brooks,Axtell,103.33,185.97,111.13,206.38,503.49,Single-ply,SBD,M
Boys,109.77,8,Zak Hudspeth,Gatesville,103.69,174.63,90.72,188.24,453.59,Single-ply,SBD,M
Boys,109.77,9,Dustin Simpson,Hubbard,101.51,161.03,106.59,163.29,430.91,Single-ply,SBD,M
Boys,109.77,10,Matt Diaz,Stephenville,104.14,149.69,104.33,176.9,430.91,Single-ply,SBD,M
Boys,109.77,11,Dillan Span,Alvarado,105.05,124.74,81.65,142.88,349.27,Single-ply,SBD,M
Boys,109.77,12,Cyle Johnson,Alvarado,104.24,129.27,77.11,104.33,310.71,Single-ply,SBD,M
Boys,109.77,DQ,David Zettler,Waco Reicher Catholic,109.32,192.78,,,,Single-ply,SBD,M
Boys,109.77,DQ,Kyle Roberts,Stephenville,101.6,115.67,,,,Single-ply,SBD,M
Boys,124.74,1,Luis Ramírez,Waco Reicher Catholic,112.04,256.28,170.1,231.33,657.71,Single-ply,SBD,M
Boys,124.74,2,Jake Glascock,Alvarado,112.76,249.48,149.69,215.46,614.62,Single-ply,SBD,M
Boys,124.74,3,Brian Pullen,China Spring,121.11,242.67,142.88,206.38,591.94,Single-ply,SBD,M
Boys,124.74+,4,Dwight Holder,Waco La Vega,124.92,249.48,136.08,199.58,585.13,Single-ply,SBD,M
Boys,124.74,5,Austin Pierce,Lorena,117.57,251.74,140.61,190.51,582.87,Single-ply,SBD,M
Boys,124.74,6,Ki Walker,Waco La Vega,110.22,226.8,149.69,188.24,564.72,Single-ply,SBD,M
Boys,124.74,7,Omar Cardosa,Waco Reicher Catholic,112.49,222.26,129.27,210.92,562.45,Single-ply,SBD,M
Boys,124.74,8,Carlton Hollister,Riesel,114.21,204.12,158.76,181.44,544.31,Single-ply,SBD,M
Boys,124.74,9,Kyle Burgess,Alvarado,116.66,199.58,124.74,208.65,532.97,Single-ply,SBD,M
Boys,124.74,10,Seth White,Alvarado,119.29,226.8,113.4,188.24,528.44,Single-ply,SBD,M
Boys,124.74,11,Andy McNew,Robinson,117.93,204.12,117.93,204.12,526.17,Single-ply,SBD,M
Boys,124.74,12,Kody Hook,Stephenville,124.28,192.78,127.01,204.12,523.9,Single-ply,SBD,M
Boys,124.74,13,Jesse Wilson,Whitney,123.83,185.97,127.01,183.7,496.68,Single-ply,SBD,M
Boys,124.74,14,Collin Sorrell,Gatesville,121.47,190.51,106.59,195.04,492.15,Single-ply,SBD,M
Boys,124.74,15,Trevor Beard,Lorena,118.84,190.51,104.33,181.44,476.27,Single-ply,SBD,M
Boys,124.74,16,Junior Quiroz,Gatesville,121.29,190.51,99.79,172.37,462.66,Single-ply,SBD,M
Boys,124.74,17,Jimmy Thomas,Alvarado,124.28,170.1,81.65,158.76,410.5,Single-ply,SBD,M
Boys,124.74+,1,Adam Rodriguez,Chilton,128.82,272.16,167.83,204.12,644.1,Single-ply,SBD,M
Boys,124.74+,2,Augie Hinojosa,Whitney,131,240.4,145.15,235.87,621.42,Single-ply,SBD,M
Boys,124.74+,3,Shane Murphy,Robinson,149.69,240.4,167.83,204.12,612.35,Single-ply,SBD,M
Boys,124.74+,4,Tanner Finley,Whitney,145.33,195.04,165.56,176.9,537.51,Single-ply,SBD,M
