Name,WeightClassKg,Division,Best3SquatKg,Best3BenchKg,Best3DeadliftKg,TotalKg,Sex,Event,Equipment,Place,Team
Erica Ellis,44,F-T3,81.65,43.09,90.72,215.46,F,SBD,Single-ply,1,LA TECH
Ashley Matherne,48,F-Jr,122.47,90.72,138.35,351.53,F,SBD,Single-ply,1,NICHOLLS
Lauren Guidry,48,F-T3,90.72,49.9,113.4,254.01,F,SBD,Single-ply,1,LSU
Jade Gautreaux,48,F-T3,86.18,58.97,106.59,251.74,F,SBD,Single-ply,2,LSU
Stephanie Williams,52,F-T3,117.93,58.97,136.08,312.98,F,SBD,Single-ply,1,LA TECH
Shay Loebig,52,F-Jr,45.36,31.75,61.23,138.35,F,SBD,Single-ply,1,LSU
Natalie Wood,56,F-Jr,83.91,43.09,90.72,217.72,F,SBD,Single-ply,1,LSU
Jan Morello,60,F-Jr,172.37,83.91,172.37,428.64,F,SBD,Single-ply,1,LSU
Jenna Farek,60,F-T3,124.74,77.11,154.22,356.07,F,SBD,Single-ply,1,LSU
Shannette Wods,60,F-Jr,117.93,61.23,127.01,306.17,F,SBD,Single-ply,2,LA TECH
Ciji LeBlanc,60,F-T3,102.06,58.97,127.01,288.03,F,SBD,Single-ply,3,NICHOLLS
Aviance Maclauren,60,F-T3,117.93,56.7,113.4,288.03,F,SBD,Single-ply,4,LSU
Jenifer Worley,60,F-Jr,104.33,47.63,115.67,267.62,F,SBD,Single-ply,3,U TEXAS
Corrie Gallien,60,F-Jr,77.11,43.09,99.79,219.99,F,SBD,Single-ply,4,UL LAF
Angelle Matt,67.5,F-T3,154.22,90.72,172.37,417.3,F,SBD,Single-ply,1,LSU
Brienne Mire,67.5,F-T3,140.61,81.65,145.15,367.41,F,SBD,Single-ply,2,LSU
Ashley Millet,67.5,F-Jr,122.47,74.84,136.08,333.39,F,SBD,Single-ply,1,NICHOLLS
Rachel Pidcock,67.5,F-T3,122.47,81.65,129.27,333.39,F,SBD,Single-ply,3,LSU
Keshia Anderson,67.5,F-T3,65.77,88.45,65.77,219.99,F,SBD,Single-ply,4,NICHOLLS
Ashley Sanders #1,75,F-Jr,176.9,86.18,174.63,437.72,F,SBD,Single-ply,1,UL LAF
Lacy Picou,82.5,F-Jr,158.76,81.65,158.76,399.16,F,SBD,Single-ply,1,NICHOLLS
Liz Ferrer,82.5,F-Jr,102.06,68.04,165.56,335.66,F,SBD,Single-ply,2,LSU
Ashley Duplessey,82.5,F-T3,90.72,49.9,127.01,267.62,F,SBD,Single-ply,1,LSU
Kelly Louque,90,F-Jr,174.63,127.01,181.44,483.08,F,SBD,Single-ply,1,NICHOLLS
Sandra Sebastian,90,F-T3,167.83,95.25,174.63,437.72,F,SBD,Single-ply,1,LA TECH
Brittney Sisson,90,F-Jr,142.88,74.84,149.69,367.41,F,SBD,Single-ply,2,LSU
Jamie Johnson #4,90+,F-Jr,204.12,131.54,195.04,530.7,F,SBD,Single-ply,1,NICHOLLS
Gracie Espericueta,90+,F-T3,204.12,95.25,165.56,464.93,F,SBD,Single-ply,1,LA TECH
Leigh Arnold,90+,F-T3,174.63,74.84,172.37,421.84,F,SBD,Single-ply,2,NICHOLLS
Brittney Kean,90+,F-T3,131.54,63.5,102.06,297.1,F,SBD,Single-ply,3,LSU
Melissa Alderman,90+,F-Jr,124.74,90.72,124.74,340.19,F,SBD,Single-ply,2,UL LAF
David Summers,52,M-T3,165.56,104.33,161.03,430.91,M,SBD,Single-ply,1,LA TECH
Matthew Molosso,52,M-T3,131.54,72.57,129.27,333.39,M,SBD,Single-ply,2,UL MON
Jarell Brown,56,M-T3,136.08,86.18,170.1,392.36,M,SBD,Single-ply,1,UL LAF
Gilbert Montes,56,M-Jr,113.4,68.04,181.44,362.87,M,SBD,Single-ply,1,U TEXAS
Chayse Melancon,60,M-Jr,174.63,147.42,170.1,492.15,M,SBD,Single-ply,1,UL LAF
Chris Bourgoyne,60,M-T3,188.24,106.59,170.1,464.93,M,SBD,Single-ply,1,LA TECH
Joey Moreno,60,M-T3,174.63,92.99,192.78,460.4,M,SBD,Single-ply,2,LA TECH
Kevin Seals,60,M-T3,156.49,115.67,183.7,455.86,M,SBD,Single-ply,3,LSU
Bradley Gulotta,60,M-Jr,165.56,99.79,183.7,449.06,M,SBD,Single-ply,2,UL MON
Fred Kalil,60,M-Jr,142.88,92.99,172.37,408.23,M,SBD,Single-ply,3,UL MON
Sekou Toure,60,F-Jr,,,,,F,SBD,Single-ply,DQ,LA TECH
Jeffery Olcsvary,67.5,M-Jr,226.8,163.29,210.92,601.01,M,SBD,Single-ply,1,UL LAF
Manny Ruiz,67.5,M-Jr,210.92,115.67,249.48,576.06,M,SBD,Single-ply,2,LSU
Michael Houston,67.5,M-T3,204.12,136.08,226.8,566.99,M,SBD,Single-ply,1,LA TECH
Michael Jenks,67.5,M-T3,176.9,117.93,192.78,487.61,M,SBD,Single-ply,2,LSU
Sandy Caraway,67.5,M-T3,172.37,97.52,195.04,464.93,M,SBD,Single-ply,3,LA TECH
William Hobbs #2,67.5,M-T3,163.29,104.33,197.31,464.93,M,SBD,Single-ply,4,UL MON
Matt Gibbens,67.5,M-Jr,156.49,97.52,183.7,437.72,M,SBD,Single-ply,3,UL LAF
Nick Guttierrez,75,M-Jr,235.87,151.95,226.8,614.62,M,SBD,Single-ply,1,LSU
Dontrell Davis,75,M-O,197.31,115.67,240.4,553.38,M,SBD,Single-ply,1,UL LAF
Larry Rivers,75,M-T3,197.31,113.4,231.33,542.04,M,SBD,Single-ply,2,UL MON
Ben Brooks,75,M-Jr,197.31,127.01,217.72,542.04,M,SBD,Single-ply,2,LA TECH
Colt Fuller,75,M-T3,195.04,120.2,215.46,530.7,M,SBD,Single-ply,3,BRCC
Dan Credeur,75,M-Jr,197.31,115.67,213.19,526.17,M,SBD,Single-ply,3,LSU
Andrew Whitacker,75,M-T3,170.1,124.74,213.19,508.02,M,SBD,Single-ply,4,LA TECH
Joshua Griffin,75,M-Jr,174.63,122.47,204.12,501.22,M,SBD,Single-ply,4,UL MON
Sam Coker,75,M-T3,142.88,106.59,176.9,426.38,M,SBD,Single-ply,5,LSU
Trae Valentine,75,M-T3,149.69,95.25,174.63,419.57,M,SBD,Single-ply,6,LSU
Eric Messinger,75,M-T3,102.06,104.33,136.08,342.46,M,SBD,Single-ply,7,U TEXAS
Jeremy Holloway,75,M-T3,97.52,68.04,149.69,315.25,M,SBD,Single-ply,8,UL MON
Travis Godawa,82.5,M-Jr,235.87,163.29,247.21,646.37,M,SBD,Single-ply,1,BRCC
Jesse Hodges,82.5,M-Jr,219.99,163.29,231.33,614.62,M,SBD,Single-ply,2,NICHOLLS
Scott Reidl,82.5,M-Jr,204.12,133.81,238.14,576.06,M,SBD,Single-ply,3,LSU
Jonathan Albritton,82.5,M-Jr,215.46,154.22,204.12,573.79,M,SBD,Single-ply,4,LA TECH
Daniel Magehee,82.5,M-T3,190.51,99.79,217.72,508.02,M,SBD,Single-ply,1,LSU
Willie Smith,82.5,M-Jr,197.31,97.52,208.65,503.49,M,SBD,Single-ply,5,UL LAF
Laurence James,90,M-T3,260.82,122.47,263.08,646.37,M,SBD,Single-ply,1,LA TECH
Torey Benett,90,M-Jr,238.14,151.95,254.01,644.1,M,SBD,Single-ply,1,LSU
Brandon Holmes,90,M-T3,247.21,133.81,251.74,632.76,M,SBD,Single-ply,2,LA TECH
Ryan Kline,90,M-Jr,176.9,111.13,229.06,517.1,M,SBD,Single-ply,2,LSU
Greg Stein,90,M-T3,136.08,102.06,147.42,385.55,M,SBD,Single-ply,3,U TEXAS
Chuck Sarver,90,M-Jr,,,,,M,SBD,Single-ply,DQ,UL LAF
Daniel Hutchinson,90,M-Jr,,,,,M,SBD,Single-ply,DQ,UL LAF
James Do,100,M-T3,215.46,181.44,238.14,635.03,M,SBD,Single-ply,1,U TEXAS
Ron Generoso,100,M-Jr,240.4,158.76,219.99,619.15,M,SBD,Single-ply,1,UL MON
Brandon Hoffman,100,M-T3,226.8,156.49,204.12,587.4,M,SBD,Single-ply,2,LA TECH
Dj Higgins,100,M-T3,192.78,158.76,226.8,578.33,M,SBD,Single-ply,3,LSU
Travis Halphen,100,M-Jr,199.58,133.81,226.8,560.19,M,SBD,Single-ply,2,LSU
Ronson Scott,100,M-Jr,172.37,113.4,226.8,512.56,M,SBD,Single-ply,3,LSU
Ryan Welty,100,M-Jr,124.74,106.59,154.22,385.55,M,SBD,Single-ply,4,UL LAF
Scott Miller,110,M-Jr,310.71,233.6,297.1,841.41,M,SBD,Single-ply,1,UL LAF
Brady Drapekin,110,M-Jr,272.16,181.44,210.92,664.51,M,SBD,Single-ply,2,UL LAF
Adam Michaelis,110,M-T3,208.65,147.42,254.01,610.08,M,SBD,Single-ply,1,LA TECH
Darren Cressionne,125,M-Jr,251.74,176.9,249.48,678.12,M,SBD,Single-ply,1,LSU
Mitch Alderman,125,M-Jr,215.46,165.56,238.14,619.15,M,SBD,Single-ply,2,UL LAF
Matt Walt,125,M-Jr,226.8,149.69,215.46,591.94,M,SBD,Single-ply,3,LA TECH
Kip Duplechine,125,M-Jr,183.7,167.83,210.92,562.45,M,SBD,Single-ply,4,UL LAF
Chad Nicholls,125,M-T3,161.03,124.74,210.92,496.68,M,SBD,Single-ply,1,LSU
Jeremy Spohrer,125,M-T3,238.14,,,,M,SBD,Single-ply,DQ,LA TECH
Jesus Arevalo,125+,M-T3,265.35,204.12,272.16,741.62,M,SBD,Single-ply,1,LA TECH
Joshualeon Davis,125+,M-T3,226.8,147.42,238.14,612.35,M,SBD,Single-ply,2,LA TECH
Jessica Dansby,60,F-T3,106.59,68.04,129.27,303.91,F,SBD,Single-ply,2,
Glen France,75,M-T3,247.21,127.01,229.06,603.28,M,SBD,Single-ply,1,
John Taylor #14,100,M-T2,136.08,113.4,158.76,408.23,M,SBD,Single-ply,1,
Katie Ford,67.5,F-O,158.76,99.79,154.22,412.77,F,SBD,Single-ply,1,
Devin Cagnolatti,82.5,M-O,249.48,195.04,251.74,696.26,M,SBD,Single-ply,1,
Chris Welch,90,M-O,195.04,138.35,219.99,553.38,M,SBD,Single-ply,1,
Sean Jacobs,110,M-O,,,,,M,SBD,Single-ply,DQ,
Tom Babcock,125,M-M1,,,,,M,B,Single-ply,DQ,
Kevin Jones #10,60,M-M1,176.9,102.06,163.29,442.25,M,SBD,Single-ply,1,
Billy Callihan,82.5,M-M6,167.83,92.99,210.92,471.74,M,SBD,Single-ply,1,
James Leblanc,82.5,M-M3,158.76,142.88,158.76,460.4,M,SBD,Single-ply,1,
Jim Lyons,82.5,M-M5,174.63,120.2,163.29,458.13,M,SBD,Single-ply,1,
