Name,WeightClassKg,Division,Best3SquatKg,Best3BenchKg,Best3DeadliftKg,TotalKg,Sex,Event,Equipment,Place,Team
Kali Ireland,44,F-T1,52.16,40.82,90.72,183.7,F,SBD,Single-ply,1,
Alexandria Ballard,60,F-T1,47.63,43.09,106.59,197.31,F,SBD,Single-ply,1,
Michelle Kell,67.5,F-M3,79.38,56.7,115.67,251.74,F,SBD,Single-ply,1,
Sean Fellows,56,M-O,24.95,131.54,65.77,222.26,M,SBD,Single-ply,1,
Connor Willett,67.5,M-T1,113.4,68.04,124.74,306.17,M,SBD,Single-ply,1,
Mark Johnson,90,M-M1,229.06,,,,M,SBD,Single-ply,DQ,
Joe Dibert,125,M-SM,233.6,240.4,231.33,705.34,M,SBD,Single-ply,1,
