Tested,Equipment,Place,Name,Division,BirthYear,Country,BodyweightKg,Squat1Kg,Squat2Kg,Squat3Kg,Best3SquatKg,Bench1Kg,Bench2Kg,Bench3Kg,Best3BenchKg,Deadlift1Kg,Deadlift2Kg,Deadlift3Kg,Best3DeadliftKg,TotalKg,WeightClassKg,Sex,CyrillicName,Event,Bench4Kg
Yes,Raw,1,Natalya Konchakova,F_OR_AWPC,1977,Russia,47.8,90,98,102.5,102.5,45,52.5,-55,52.5,110,120,127.5,127.5,282.5,48,F,Наталья Кончакова,SBD,
Yes,Raw,1,Tetyana Red'ko,F_TR_3_AWPC,1993,Ukraine,51.6,85,95,-102.5,95,47.5,-50,-50,47.5,85,95,102.5,102.5,245,52,F,Тетяна Редько,SBD,
Yes,Raw,1,Svitlana Nesterova,F_OR_AWPC,1975,Ukraine,52,72.5,77.5,80,80,42.5,-45,45,45,85,-92.5,-92.5,85,210,52,F,Світлана Нестерова,SBD,
Yes,Raw,1,Ekaterina Plokhaya,F_JR_AWPC,1989,Russia,55.6,75,-80,80,80,50,-52.5,-52.5,50,100,105,-110,105,235,56,F,Екатерина Плохая,SBD,
Yes,Raw,1,Ekaterina Sukhoverkova,F_OR_AWPC,1973,Russia,55.5,-100,107.5,112.5,112.5,62.5,67.5,-70,67.5,130,140,145,145,325,56,F,Екатерина Суховеркова,SBD,
Yes,Raw,2,Svetlana Maletskaya,F_OR_AWPC,1983,Russia,56,102.5,-107.5,107.5,107.5,62.5,65,-67.5,65,125,135,-140.5,135,307.5,56,F,Светлана Малецкая,SBD,
Yes,Raw,3,Ekaterina Plokhaya,F_OR_AWPC,1989,Russia,55.6,75,-80,80,80,50,-52.5,-52.5,50,100,105,-110,105,235,56,F,Екатерина Плохая,SBD,
Yes,Raw,1,Yuliya Bakhir,F_OR_AWPC,1984,Russia,59,97.5,102.5,-105,102.5,77.5,82.5,85,85,165.5,-175,,165.5,353,60,F,Юлия Бахир,SBD,
Yes,Raw,1,Tatiana Ukhlina,F_MR_1_AWPC,1971,Russia,57.8,110,115,-120,115,-60,60,-65,60,115,120,-127.5,120,295,60,F,Татьяна Ухлина,SBD,
Yes,Raw,1,Nelya Obikhodenko,F_OR_AWPC,1982,Ukraine,61.2,95,102.5,110,110,57.5,65,70,70,110,120,130,130,310,67.5,F,Неля Обиходенко,SBD,
Yes,Raw,2,Alla Kryshtaleva,F_OR_AWPC,1956,Ukraine,66.7,85,92.5,100,100,50,57.5,,57.5,95,105,110,110,267.5,67.5,F,Алла Криштальова,SBD,
Yes,Raw,1,Alla Kryshtaleva,F_MR_4_AWPC,1956,Ukraine,66.7,85,92.5,100,100,50,57.5,,57.5,95,105,110,110,267.5,67.5,F,Алла Криштальова,SBD,
Yes,Raw,1,Kostyantin Sheychenko,M_TR_2_AWPC,1995,Ukraine,51.7,85,95,102.5,102.5,65,70.5,75,75,100,115,125,125,302.5,52,M,Костянтин Шейченко,SBD,
Yes,Raw,1,Rafig Rustamov,M_JR_AWPC,1989,Azerbaijan,56,130,140,-150,140,90,95,-100,95,160,-165,165,165,400,56,M,,SBD,
Yes,Raw,1,Rafig Rustamov,M_OR_AWPC,1989,Azerbaijan,56,130,140,-150,140,90,95,-100,95,160,-165,165,165,400,56,M,,SBD,
Yes,Raw,1,Sergei Volodarsky,M_JR_AWPC,1989,Russia,57.4,140,150,-160,150,105,110,-110.5,110,170,180,-185,180,440,60,M,Сергей Володарский,SBD,
Yes,Raw,1,Sergiy Chernov,M_OR_AWPC,1986,Ukraine,58.8,140,-150,150,150,100,110,-115.5,110,190,200,,200,460,60,M,Сергій Чернов,SBD,
Yes,Raw,2,Maksim Sukhobok,M_OR_AWPC,1965,Russia,59.4,145,155,160,160,97.5,-102.5,102.5,102.5,185,196,-200,196,458.5,60,M,Максим Сухобок,SBD,
Yes,Raw,3,Sergei Volodarsky,M_OR_AWPC,1989,Russia,57.4,140,150,-160,150,105,110,-110.5,110,170,180,-185,180,440,60,M,Сергей Володарский,SBD,
Yes,Raw,1,Maksim Sukhobok,M_MR_2_AWPC,1965,Russia,59.4,145,155,160,160,97.5,-102.5,102.5,102.5,185,196,-200,196,458.5,60,M,Максим Сухобок,SBD,
Yes,Raw,1,Vladyslav Konyaev,M_TR_2_AWPC,1995,Ukraine,64,-130,130,-150,130,90,-100,-100,90,140,160,-170,160,380,67.5,M,Владислав Коняєв,SBD,
Yes,Raw,1,Yevgen Kravets,M_TR_3_AWPC,1994,Ukraine,65.4,130,140,145,145,100,105,-110,105,190,200,-205,200,450,67.5,M,Євген Кравець,SBD,
Yes,Raw,1,Ruslan Subotin,M_JR_AWPC,1989,Ukraine,65.2,105,115,125,125,75,-85,85,85,155,165,-172.5,165,375,67.5,M,Руслан Суботин,SBD,
Yes,Raw,1,Petro Tyshchenko,M_OR_AWPC,1984,Ukraine,66,170,180,-182.5,180,150.5,155,-157.5,155,220,230,235,235,570,67.5,M,Петро Тищенко,SBD,
Yes,Raw,2,Igor Pavlov #1,M_OR_AWPC,1987,Ukraine,66.3,182.5,187.5,192.5,192.5,132.5,-137.5,-137.5,132.5,215,220,-225,220,545,67.5,M,Ігорь Павлов,SBD,
Yes,Raw,3,Yuriy Nikitchenko,M_OR_AWPC,1977,Russia,66.5,200,-210,-215,200,120,125,127.5,127.5,190,200,-205,200,527.5,67.5,M,Юрий Никитченко,SBD,
Yes,Raw,1,Sergey Alampiev,M_MR_4_AWPC,1957,Russia,67.2,140,150,-160.5,150,90,100,-105.5,100,180,201,205,205,455,67.5,M,Сергей Алампиев,SBD,
Yes,Raw,DQ,Anatoliy Bochkovskyy,M_MR_4_AWPC,1954,Ukraine,66.8,-160,-160,-165,,,,,,,,,,,67.5,M,Анатолій Бочковський,SBD,
Yes,Raw,1,Vladimir Sviderskiy,M_MR_5_AWPC,1951,Russia,67.4,120,125,-130,125,82.5,87.5,90,90,137.5,145,147.5,147.5,362.5,67.5,M,Владимир Свидерский,SBD,
Yes,Raw,1,Evgeniy Boloban,M_TR_1_AWPC,1996,Ukraine,72.5,165,175,180,180,105,110,115,115,150,165,-172.5,165,460,75,M,Євгеній Болобан,SBD,
Yes,Raw,1,Evgeniy Lyutikov,M_TR_3_AWPC,1993,Russia,75,160,175,185,185,97.5,-105,105,105,200,210,-220,210,500,75,M,Евгений Лютиков,SBD,
Yes,Raw,2,Dmytro Perekhrest,M_TR_3_AWPC,1994,Ukraine,75,-150,150,160,160,100,105,110,110,175,190,-200,190,460,75,M,Дмитро Перехрест,SBD,
Yes,Raw,1,Yaroslav Litvinenko,M_OR_AWPC,1976,Ukraine,75,180,190,202.5,202.5,130,-135,-135,130,220,-230,-230,220,552.5,75,M,Ярослав Литвиненко,SBD,
Yes,Raw,2,Sergiu Teliucov,M_OR_AWPC,1986,Moldova,68.5,160,175,182.5,182.5,105,117.5,122.5,122.5,160,185,-195,185,490,75,M,,SBD,
Yes,Raw,DQ,Vitaliy Chmyrev,M_OR_AWPC,1987,Ukraine,71.6,-180,-190,-195,,,,,,,,,,,75,M,Віталій Чмирьов,SBD,
Yes,Raw,1,Pavlo Grabar,M_TR_2_AWPC,1995,Ukraine,80.6,145,155,170,170,-100,100,-107.5,100,185,195,205,205,475,82.5,M,Павло Грабар,SBD,
Yes,Raw,DQ,Andrey Koloda,M_TR_2_AWPC,1996,Ukraine,80.3,-175,-185,-185,,,,,,,,,,,82.5,M,Андрій Колода,SBD,
Yes,Raw,1,Kostyantyn Gorbunov,M_TR_3_AWPC,1993,Ukraine,81.8,160,170,190,190,110,120,-130,120,170,190,210,210,520,82.5,M,Костянтин Горбунов,SBD,
Yes,Raw,1,Faraj Jalilov,M_JR_AWPC,1992,Azerbaijan,82.1,210,215,217.5,217.5,160,170,172.5,172.5,240,250,255,255,645,82.5,M,,SBD,
Yes,Raw,2,Sergiy Skorodumov,M_JR_AWPC,1991,Ukraine,82.5,-205,210,215,215,140,-147.5,-147.5,140,240,-245,-245,240,595,82.5,M,Сергій Скородумов,SBD,
Yes,Raw,3,Roman Dubina,M_JR_AWPC,1990,Ukraine,80.4,-150,-165,170,170,105,-115,120,120,175,190,-200,190,480,82.5,M,Роман Дубіна,SBD,
Yes,Raw,1,Eduard Dolgov #1,M_OR_AWPC,1987,Ukraine,82.4,230,240,-245,240,160,172.5,-180,172.5,250,260,265,265,677.5,82.5,M,Едуард Долгов,SBD,
Yes,Raw,2,Faraj Jalilov,M_OR_AWPC,1992,Azerbaijan,82.1,210,215,217.5,217.5,160,170,172.5,172.5,240,250,255,255,645,82.5,M,,SBD,
Yes,Raw,3,Bogdan Vorobey,M_OR_AWPC,1983,Ukraine,80.1,195,202.5,-210,202.5,135,140,145,145,230,235,-240,235,582.5,82.5,M,Богдан Воробей,SBD,
Yes,Raw,4,Vasyl' Mykhalskyy,M_OR_AWPC,1980,Ukraine,79,-170,170,-180,170,115,125,127.5,127.5,215,230,-240,230,527.5,82.5,M,Василь Михальський,SBD,
Yes,Raw,1,Rinat Zaripov,M_MR_1_AWPC,1970,Ukraine,82.3,216,225,230,230,150,157.5,162.5,162.5,250,265,-275,265,657.5,82.5,M,Рінат Заріпов,SBD,
Yes,Raw,1,Grigory Sarukhanyan,M_MR_2_AWPC,1965,Russia,82.5,-212.5,212.5,-217.5,212.5,147.5,152.5,-155,152.5,270,280,,280,645,82.5,M,Григорий Саруханян,SBD,
Yes,Raw,2,Oleksiy Sheychenko,M_MR_2_AWPC,1965,Ukraine,82.5,120,130,140,140,90,95,100,100,150,165,172.5,172.5,412.5,82.5,M,Олексій Шейченко,SBD,
Yes,Raw,1,Vyacheslav Chevordaev,M_MR_5_AWPC,1948,Russia,81,175,-190,-190,175,92.5,-97.5,-97.5,92.5,200,210,-225.5,210,477.5,82.5,M,Вячеслав Чевордаев,SBD,
Yes,Raw,1,Volodymyr Vasylenko,M_MR_6_AWPC,1943,Ukraine,76.8,95,105,110,110,60,65,,65,125,140,152.5,152.5,327.5,82.5,M,Володимир Василенко,SBD,
Yes,Raw,1,Roman Ermilov,M_JR_AWPC,1989,Russia,82.6,170,185,-195,185,130,135,140,140,215,-230,-230,215,540,90,M,Роман Ермилов,SBD,
Yes,Raw,DD,Aleksandr Novosad,M_JR_AWPC,1992,Ukraine,90,190,-202.5,-210,190,-110,-110,-110,,,,,,,90,M,Олександр Новосад,SBD,
Yes,Raw,1,Vitaliy Alekseev #1,M_OR_AWPC,1988,Ukraine,90,210,230,-240,230,140,155,-165,155,270,300,-315,300,685,90,M,Віталій Алексеєв,SBD,
Yes,Raw,2,Sergey Larionov,M_OR_AWPC,1975,Russia,90,-182.5,185,-190,185,140,150,155,155,252.5,265,-267.5,265,605,90,M,Сергей Ларионов,SBD,
Yes,Raw,3,Dmitro Pavlenko,M_OR_AWPC,1978,Ukraine,90,-200,200,-212.5,200,140,147.5,150,150,220,230,-257.5,230,580,90,M,Дмитро Павленко,SBD,
Yes,Raw,4,Jamal Ahmedzade,M_OR_AWPC,1984,Azerbaijan,89.6,160,170,-175,170,115,-120,-120,115,180,-200,,180,465,90,M,,SBD,
Yes,Raw,1,Andriy Vasylenko,M_MR_1_AWPC,1968,Ukraine,85.9,-145,145,160,160,135,-145,-145,135,190,200,-210,200,495,90,M,Андрій Василенко,SBD,
Yes,Raw,1,Borys Malov,M_MR_3_AWPC,1962,Ukraine,90,180,190,200,200,120,130,135,135,220,-230,230,230,565,90,M,Борис Малов,SBD,
Yes,Raw,2,Yuriy Kulikov,M_MR_3_AWPC,1959,Ukraine,90,140,150,,150,115,122.5,125,125,200,210,,210,485,90,M,Юрій Куліков,SBD,
Yes,Raw,1,Aleksandr Nemchinov,M_MR_5_AWPC,1951,Russia,89,171,175,180,180,110,120,,120,196,205,215,215,515,90,M,Александр Немчинов,SBD,
Yes,Raw,1,Sergiy Makarovych,M_JR_AWPC,1991,Ukraine,97,-230,230,-235,230,150,-155,-155,150,245,255,260,260,640,100,M,Сергій Макарович,SBD,
Yes,Raw,1,Mikhail Slepchenko,M_OR_AWPC,1977,Ukraine,95.4,250,270,280,280,170,180,-185,180,250,265,280,280,740,100,M,Михайло Слепченко,SBD,
Yes,Raw,2,Mikhaylo Zhelyazkov,M_OR_AWPC,1980,Ukraine,96.1,220,240,-245,240,150,155,,155,260,-270,270,270,665,100,M,Михайло Желязков,SBD,
Yes,Raw,3,Vitaliy Buryak,M_OR_AWPC,1978,Ukraine,100,-230,-230,230,230,150,160,-165,160,250,270,-285,270,660,100,M,Віталій Буряк,SBD,
Yes,Raw,4,Timofiy Kravchenko,M_OR_AWPC,1982,Ukraine,97.2,205,212.5,217.5,217.5,155,162.5,-167.5,162.5,225,240,250,250,630,100,M,Тимофій Кравченко,SBD,
Yes,Raw,5,Igor Licherep,M_OR_AWPC,1979,Ukraine,95.2,205,215,225,225,125,135,-140,135,225,240,245,245,605,100,M,Ігор Лічереп,SBD,
Yes,Raw,6,Roman Dmitrenko,M_OR_AWPC,1973,Ukraine,97,190,-210,-210,190,140,155,160,160,230,250,-255,250,600,100,M,Роман Дмитренко,SBD,
Yes,Raw,1,Yuriy Chernyavskyy,M_MR_1_AWPC,1972,Ukraine,99.2,200,210,-215,210,155,-165,165,165,220,230,235,235,610,100,M,Юрій Чернявський,SBD,
Yes,Raw,1,Volodymyr Ogloblin,M_MR_2_AWPC,1965,Ukraine,99.6,201,210,215,215,120,127.5,132.5,132.5,230,251,-255,251,598.5,100,M,Володимир Оглоблін,SBD,
Yes,Raw,1,Vyacheslav Frank,M_MR_3_AWPC,1962,Russia,98.4,160,-175,,160,120,130,-135,130,185,200,-220,200,490,100,M,Вячеслав Франк,SBD,
Yes,Raw,2,Vladimir Kalinin,M_MR_3_AWPC,1960,Russia,93.1,140,-150,150,150,95,102.5,-107.5,102.5,165,177.5,187.5,187.5,440,100,M,Владимир Калинин,SBD,
Yes,Raw,1,Valeriy Lytovchenko,M_MR_5_AWPC,1948,Ukraine,92,145,155,-170,155,85,-92.5,95,95,180,190,200,200,450,100,M,Валерій Литовченко,SBD,
Yes,Raw,1,Nikolai Fesaniuk,M_OR_AWPC,1984,Russia,105.9,300,320,330,330,180,190,-192.5,190,320,340,-350,340,860,110,M,Николай Фесанюк,SBD,
Yes,Raw,2,Valeriy Sabelnikov,M_OR_AWPC,1971,Russia,107.5,240,255,265,265,170,180,185,185,260,270,280,280,730,110,M,Валерий Сабельников,SBD,
Yes,Raw,3,Andriy Kolesnik,M_OR_AWPC,1982,Ukraine,101.4,225,-235,235,235,140,145,-150,145,210,220,230,230,610,110,M,Андрій Колесник,SBD,
Yes,Raw,1,Valeriy Sabelnikov,M_MR_1_AWPC,1971,Russia,107.5,240,255,265,265,170,180,185,185,260,270,280,280,730,110,M,Валерий Сабельников,SBD,
Yes,Raw,1,Sergiy Zhabitenko,M_MR_3_AWPC,1959,Ukraine,110,-190,190,-210,190,125,137.5,-145,137.5,190,220,232.5,232.5,560,110,M,Сергій Жабітенко,SBD,
Yes,Raw,1,Vladimir Chernyshov,M_MR_5_AWPC,1948,Russia,108.7,175,185,195,195,97.5,107.5,112.5,112.5,200,212.5,-217.5,212.5,520,110,M,Владимир Чернышов,SBD,
Yes,Raw,1,Evgeniy Baranov,M_OR_AWPC,1982,Russia,117.8,260,-270,-270,260,185,-190,-190,185,275,285,-295,285,730,125,M,Евгений Баранов,SBD,
Yes,Raw,2,Dmitriy Burlakov,M_OR_AWPC,1985,Russia,110.6,190,205,-215,205,120,127.5,-132.5,127.5,200,215,225,225,557.5,125,M,Дмитрий Бурлаков,SBD,
Yes,Raw,1,Yaroslav Apalkov,M_TR_3_AWPC,1993,Ukraine,140,210,230,-250,230,140,150,-160,150,250,270,-280,270,650,140,M,Ярослав Апальков,SBD,
Yes,Raw,1,Dmytro Kosenko,M_OR_AWPC,1979,Ukraine,141,250,265,-280,265,195,205,-207.5,205,260,,,260,730,140+,M,Дмитро Косенко,SBD,
Yes,Multi-ply,1,Natalya Blinkova,F_JEM_AWPC,1991,Russia,52,110,120,-130,120,75,80,82.5,82.5,140,147.5,-152.5,147.5,350,52,F,Наталья Блинкова,SBD,
Yes,Multi-ply,2,Svitlana Fofanova,F_JEM_AWPC,1988,Ukraine,52,135,140,142.5,142.5,60,65,-70,65,130,-137.5,-137.5,130,337.5,52,F,Світлана Фофанова,SBD,
Yes,Multi-ply,1,Natalya Blinkova,F_OEM_AWPC,1991,Russia,52,110,120,-130,120,75,80,82.5,82.5,140,147.5,-152.5,147.5,350,52,F,Наталья Блинкова,SBD,
Yes,Multi-ply,1,Mariya Pustovit,F_OEM_AWPC,1985,Russia,54.6,130,-140,-142.5,130,85,-90,-92.5,85,120,-130,-132.5,120,335,56,F,Мария Пустовит,SBD,
Yes,Multi-ply,1,Oleksandr Artyukh,M_TEM_3_AWPC,1993,Ukraine,59.7,150,-170,-170,150,80,-87.5,-87.5,80,-170,170,-200.5,170,400,60,M,Олександр Артюх,SBD,
Yes,Multi-ply,1,Igor Lyubaev,M_OEM_AWPC,1979,Russia,58.8,200,-220,-220,200,110,120,125.5,125.5,180,190,197.5,197.5,523,60,M,Игорь Любаев,SBD,
Yes,Multi-ply,2,Oleksandr Artyukh,M_OEM_AWPC,1993,Ukraine,59.7,150,-170,-170,150,80,-87.5,-87.5,80,-170,170,-200.5,170,400,60,M,Олександр Артюх,SBD,
Yes,Multi-ply,1,Oleg Buchnev,M_TEM_2_AWPC,1995,Russia,66.8,180,-190,-195,180,140,146,150,150,170,190,-210,190,520,67.5,M,Олег Бучнев,SBD,
Yes,Multi-ply,1,Andrey Kadochnikov,M_JEM_AWPC,1988,Russia,66.7,225,240,247.5,247.5,140,-150,150,150,210,-227.5,-227.5,210,607.5,67.5,M,Андрей Кадочников,SBD,
Yes,Multi-ply,2,Oleg Son,M_JEM_AWPC,1991,Russia,66.9,-200,-210,210,210,-110,110,-120,110,190,-205,-205,190,510,67.5,M,Олег Сон,SBD,
Yes,Multi-ply,1,Sergey Alampiev,M_MEM_4_AWPC,1957,Russia,66.9,180,-195,200.5,200.5,100,105,110,110,180,200,205,205,515.5,67.5,M,Сергей Алампиев,SBD,
Yes,Multi-ply,1,Anton Popov,M_JEM_AWPC,1989,Ukraine,70.8,170,185,-195,185,135,140,-145,140,170,185,195,195,520,75,M,Антон Попов,SBD,
Yes,Multi-ply,1,Volodymyr Lapunin,M_OEM_AWPC,1975,Ukraine,75,220,235,,235,150,157.5,165,165,210,225,230,230,630,75,M,Володимир Лапунін,SBD,
Yes,Multi-ply,2,Igor Andrusyk,M_OEM_AWPC,1988,Ukraine,74.6,185,-200,-205,185,140,150,155,155,200,215,225,225,565,75,M,Ігор Андрусик,SBD,
Yes,Multi-ply,1,Alexander Karpenko,M_JEM_AWPC,1992,Russia,82.1,280,300,315,315,180,-195,195,195,260,275,-285,275,785,82.5,M,Александр Карпенко,SBD,
Yes,Multi-ply,2,Igor Zhuk #1,M_JEM_AWPC,1988,Ukraine,79.8,-230,230,,230,110,-160,-165,110,150,170,-190,170,510,82.5,M,Игорь Жук,SBD,
Yes,Multi-ply,1,Alexander Karpenko,M_OEM_AWPC,1992,Russia,82.1,280,300,315,315,180,-195,195,195,260,275,-285,275,785,82.5,M,Александр Карпенко,SBD,
Yes,Multi-ply,2,Andriy Dyatlov,M_OEM_AWPC,1985,Ukraine,78.8,260,-280,280,280,180,197.5,-205,197.5,235,250,265,265,742.5,82.5,M,Андрій Дятлов,SBD,
Yes,Multi-ply,3,Konstantin Sapunkov,M_OEM_AWPC,1981,Russia,81.8,260,-270,-275,260,180,195,-202.5,195,-240,240,-250,240,695,82.5,M,Константин Сапунков,SBD,
Yes,Multi-ply,1,Rinat Zaripov,M_MEM_1_AWPC,1970,Ukraine,82.4,260,280,292.5,292.5,175,185,192.5,192.5,260,280,288,288,773,82.5,M,Рінат Заріпов,SBD,
Yes,Multi-ply,1,Mikhail Zhuravlev,M_MEM_6_AWPC,1943,Russia,80.5,190,202.5,211,211,120,127.5,135,135,200,215,220,220,566,82.5,M,Михаил Журавлев,SBD,
Yes,Multi-ply,1,Dmytro Derevyanko,M_OEM_AWPC,1984,Ukraine,89.4,320,335,345,345,195,200,-202.5,200,260,275,-285,275,820,90,M,Дмитро Дерев'янко,SBD,
Yes,Multi-ply,2,Roman Saliy,M_OEM_AWPC,1980,Ukraine,87.2,290,310,-320,310,-182.5,182.5,-195,182.5,262.5,277.5,285,285,777.5,90,M,Роман Салій,SBD,
Yes,Multi-ply,1,Bogdasar Agamalyan,M_OEM_AWPC,1985,Russia,97,-310,-315,315,315,205,-212.5,212.5,212.5,285,300,-307.5,300,827.5,100,M,Богдасар Агамалян,SBD,
Yes,Multi-ply,1,Dmytro Kal'nin,M_JEM_AWPC,1989,Ukraine,100.4,250,260,,260,160,-170,-170,160,230,250,-260,250,670,110,M,Дмитро Кальнин,SBD,
Yes,Multi-ply,1,Oleksandr Shvets,M_MEM_1_AWPC,1971,Ukraine,114.5,220,232.5,242.5,242.5,190,195,200,200,210,-225,225,225,667.5,125,M,Олександр Швець,SBD,
Yes,Raw,1,Anastasiya Vasylchenko,F_TR_3_AWPC,1992,Ukraine,43.9,,,,,40,45,50.5,50.5,,,,,50.5,44,F,Анастасія Васильченко,B,
Yes,Raw,1,Anastasiya Vasylchenko,F_OR_AWPC,1992,Ukraine,43.9,,,,,40,45,50.5,50.5,,,,,50.5,44,F,Анастасія Васильченко,B,
Yes,Raw,2,Kseniya Voloshina,F_OR_AWPC,1985,Ukraine,43.2,,,,,45,47.5,-50,47.5,,,,,47.5,44,F,Ксенія Волошина,B,
Yes,Raw,1,Milena Rudenko,F_OR_AWPC,1981,Ukraine,45.8,,,,,55,57.5,-60,57.5,,,,,57.5,48,F,Мілена Руденко,B,
Yes,Raw,2,Gella Lan',F_OR_AWPC,1975,Ukraine,48,,,,,45,50,-52.5,50,,,,,50,48,F,Гелла Лань,B,
Yes,Raw,1,Anna Kadatska,F_OR_AWPC,1977,Ukraine,50.7,,,,,80,87.5,90.5,90.5,,,,,90.5,52,F,Анна Кадацька,B,
Yes,Raw,2,Nadiya Savchenko,F_OR_AWPC,1986,Ukraine,50.8,,,,,55,60,-65,60,,,,,60,52,F,Надія Савченко,B,
Yes,Raw,1,Kateryna Prasol,F_JR_AWPC,1990,Ukraine,54.4,,,,,42.5,-47.5,-47.5,42.5,,,,,42.5,56,F,Катерина Прасол,B,
Yes,Raw,1,Anna Konoval,F_OR_AWPC,1984,Ukraine,55.7,,,,,75,85,-90,85,,,,,85,56,F,Анна Коновал,B,
Yes,Raw,2,Maryna Gal'chuk,F_OR_AWPC,1982,Ukraine,56,,,,,55,57.5,-62.5,57.5,,,,,57.5,56,F,Марина Гальчук,B,
Yes,Raw,1,Yuliya Bakhir,F_OR_AWPC,1984,Russia,58.2,,,,,75,82.5,-90,82.5,,,,,82.5,60,F,Юлия Бахир,B,
Yes,Raw,2,Lyubov Maltseva,F_OR_AWPC,1976,Russia,57.9,,,,,65,67.5,70,70,,,,,70,60,F,Любовь Мальцева,B,
Yes,Raw,3,Maryna Soltanova,F_OR_AWPC,1985,Ukraine,59.2,,,,,65,70,-72.5,70,,,,,70,60,F,Марина Солтанова,B,
Yes,Raw,4,Nelya Obikhodenko,F_OR_AWPC,1982,Ukraine,59.5,,,,,57.5,65,70,70,,,,,70,60,F,Неля Обиходенко,B,
Yes,Raw,1,Olena Yarova,F_MR_1_AWPC,1969,Ukraine,59.3,,,,,55,57.5,60,60,,,,,60,60,F,Олена Ярова,B,
Yes,Raw,1,Natalya Pen'kova,F_MR_2_AWPC,1965,Ukraine,60,,,,,37.5,-42.5,-42.5,37.5,,,,,37.5,60,F,Наталія Пенькова,B,
Yes,Raw,1,Maryna Stokozenko,F_JR_AWPC,1989,Ukraine,63.1,,,,,52.5,58,-60,58,,,,,58,67.5,F,Марина Стокозенко,B,
Yes,Raw,1,Maryna Khristoforova,F_OR_AWPC,1966,Ukraine,61.9,,,,,77.5,82.5,-87.5,82.5,,,,,82.5,67.5,F,Марина Христофорова,B,
Yes,Raw,1,Maryna Khristoforova,F_MR_2_AWPC,1966,Ukraine,61.9,,,,,77.5,82.5,-87.5,82.5,,,,,82.5,67.5,F,Марина Христофорова,B,
Yes,Raw,1,Alla Kryshtaleva,F_MR_4_AWPC,1956,Ukraine,66.7,,,,,50,55,-60.5,55,,,,,55,67.5,F,Алла Криштальова,B,
Yes,Raw,2,Olga Pisareva,F_MR_4_AWPC,1956,Ukraine,66.8,,,,,-45,-45,45,45,,,,,45,67.5,F,Ольга Писарєва,B,
Yes,Raw,1,Iryna Zhelyazkova,F_OR_AWPC,1984,Ukraine,67.7,,,,,50,-55,55,55,,,,,55,75,F,Ірина Желязкова,B,
Yes,Raw,1,Tetyana Ovsiyenko,F_OR_AWPC,1975,Ukraine,86.7,,,,,50,52.5,-55,52.5,,,,,52.5,90,F,Тетяна Овсієнко,B,
Yes,Raw,1,Dmytro Usachov,M_TR_1_AWPC,1998,Ukraine,44.4,,,,,50,55,-57.5,55,,,,,55,52,M,Дмитро Усачов,B,
Yes,Raw,2,Vladislav Bondarenko,M_TR_1_AWPC,1999,Ukraine,32.3,,,,,32.5,35,37.5,37.5,,,,,37.5,52,M,Владислав Бондаренко,B,
Yes,Raw,3,Yegor Kurochkin,M_TR_1_AWPC,1999,Ukraine,42.3,,,,,30,35,-40,35,,,,,35,52,M,Єгор Курочкін,B,
Yes,Raw,1,Ivan Gorelkin,M_TR_3_AWPC,1994,Russia,51.2,,,,,100,-105,105,105,,,,,105,52,M,Иван Горелкин,B,
Yes,Raw,1,Igor Artemyev,M_MR_1_AWPC,1971,Russia,55.9,,,,,105,112.5,117.5,117.5,,,,,117.5,56,M,Игорь Артемьев,B,
Yes,Raw,1,Volodymyr Kovalenko,M_MR_2_AWPC,1965,Ukraine,55.7,,,,,75,82.5,90,90,,,,,90,56,M,Володимир Коваленко,B,
Yes,Raw,1,Vitaliy Prokha,M_TR_3_AWPC,1994,Ukraine,59.3,,,,,90,-100,100,100,,,,,100,60,M,Віталій Проха,B,
Yes,Raw,1,Viktor Khorunzhyy,M_JR_AWPC,1990,Ukraine,58.6,,,,,105,110,112.5,112.5,,,,,112.5,60,M,Віктор Хорунжий,B,
Yes,Raw,1,Sergei Karaziya,M_OR_AWPC,1987,Russia,58.9,,,,,145,152.5,155,155,,,,,155,60,M,Сергей Каразия,B,157.5
Yes,Raw,2,Rostyslav Borovskyy,M_OR_AWPC,1986,Ukraine,57.3,,,,,105,110,115,115,,,,,115,60,M,Ростислав Боровський,B,
Yes,Raw,3,Evgeniy Lizunov,M_OR_AWPC,1987,Russia,58.8,,,,,107.5,112.5,-117.5,112.5,,,,,112.5,60,M,Евгений Лизунов,B,
Yes,Raw,1,Oleg Artemyev,M_MR_1_AWPC,1971,Russia,58.8,,,,,110,117.5,125,125,,,,,125,60,M,Олег Артемьев,B,
Yes,Raw,1,Mykola Belov,M_TR_1_AWPC,1997,Ukraine,66,,,,,-95,107.5,110,110,,,,,110,67.5,M,Микола Бєлов,B,
Yes,Raw,2,Kyrylo Sharoyko,M_TR_1_AWPC,1998,Ukraine,66.9,,,,,55,60,-65,60,,,,,60,67.5,M,Кирило Шаройко,B,
Yes,Raw,1,Viktor Kalynovskyy,M_TR_2_AWPC,1995,Ukraine,65.2,,,,,115,120,125,125,,,,,125,67.5,M,Віктор Калиновський,B,
Yes,Raw,2,Mykhaylo Doskoch,M_TR_2_AWPC,1994,Ukraine,66.7,,,,,100,110,-120,110,,,,,110,67.5,M,Михайло Доскоч,B,
Yes,Raw,1,Vyacheslav Kozis,M_TR_3_AWPC,1993,Ukraine,64.3,,,,,115,120,-126,120,,,,,120,67.5,M,В'ячеслав Козіс,B,
Yes,Raw,2,Oleksandr Kyrylenko,M_TR_3_AWPC,1994,Ukraine,65.3,,,,,115,120,-126,120,,,,,120,67.5,M,Олександр Кириленко,B,
Yes,Raw,1,Ashot Eganyan,M_JR_AWPC,1990,Ukraine,62.3,,,,,140,147.5,152.5,152.5,,,,,152.5,67.5,M,Ашот Єганян,B,
Yes,Raw,1,Tsotne Bezhashvili,M_OR_AWPC,1985,Georgia,64.7,,,,,160,165,170,170,,,,,170,67.5,M,,B,175
Yes,Raw,2,Oleg Prikhodko,M_OR_AWPC,1981,Ukraine,66.9,,,,,150,155,-160,155,,,,,155,67.5,M,Олег Приходько,B,
Yes,Raw,1,Oleksandr Gol'din,M_MR_1_AWPC,1969,Ukraine,66.3,,,,,115,-125,125,125,,,,,125,67.5,M,Олександр Гольдін,B,
Yes,Raw,1,Vladimir Sviderskiy,M_MR_5_AWPC,1951,Russia,67.4,,,,,82.5,87.5,-90,87.5,,,,,87.5,67.5,M,Владимир Свидерский,B,
Yes,Raw,DQ,Anton Levenets,M_TR_2_AWPC,1995,Ukraine,70.8,,,,,-127.5,-127.5,-127.5,,,,,,,75,M,Антон Левенець,B,
Yes,Raw,1,Yevgen Chabala,M_TR_3_AWPC,1992,Ukraine,74.9,,,,,135,140,-145,140,,,,,140,75,M,Євген Чабала,B,
Yes,Raw,2,Artem Dmitruk,M_TR_3_AWPC,1993,Ukraine,72.9,,,,,120,127.5,-137.5,127.5,,,,,127.5,75,M,Артем Дмитрук,B,
Yes,Raw,1,Mikhail Lokhmotkin,M_JR_AWPC,1989,Russia,72.8,,,,,150,155,162.5,162.5,,,,,162.5,75,M,Михаил Лохмоткин,B,
Yes,Raw,2,Oleksandr Kovalenko,M_JR_AWPC,1991,Ukraine,74.6,,,,,160,163,-167.5,163,,,,,163,75,M,Олександр Коваленко,B,
Yes,Raw,3,Andriy Maslyak,M_JR_AWPC,1990,Ukraine,75,,,,,140,150,155,155,,,,,155,75,M,Андрій Масляк,B,
Yes,Raw,1,Oleksandr Garbuza,M_OR_AWPC,1982,Ukraine,73.2,,,,,160,165,-170,165,,,,,165,75,M,Олександр Гарбуза,B,
Yes,Raw,2,Dmytro Moroz,M_OR_AWPC,1976,Ukraine,73.3,,,,,160,165,-170,165,,,,,165,75,M,Дмитро Мороз,B,
Yes,Raw,3,Kouokam Watchou,M_OR_AWPC,1986,Cameroon,70.3,,,,,150,160,-170,160,,,,,160,75,M,,B,
Yes,Raw,4,Eydar Adzhalov,M_OR_AWPC,1981,Russia,71.7,,,,,-130,-135,137.5,137.5,,,,,137.5,75,M,Эйдар Аджалов,B,
Yes,Raw,1,Vladimir Zabolotnev,M_MR_1_AWPC,1968,Russia,69.7,,,,,145,150.5,152.5,152.5,,,,,152.5,75,M,Владимир Заболотнев,B,155
Yes,Raw,2,Volodymyr Shuba,M_MR_1_AWPC,1971,Ukraine,74.5,,,,,130,-137.5,-137.5,130,,,,,130,75,M,Володимир Шуба,B,
Yes,Raw,1,Vladyslav Ilmatov,M_MR_2_AWPC,1963,Ukraine,73.8,,,,,110,120,-125,120,,,,,120,75,M,Владислав Ільматов,B,
Yes,Raw,1,Dmitro Cherevatenko,M_MR_3_AWPC,1960,Ukraine,73,,,,,100,107.5,110,110,,,,,110,75,M,Дмитро Череватенко,B,
Yes,Raw,1,Arsen Kaseyev,M_MR_4_AWPC,1955,Ukraine,75,,,,,132.5,137.5,140,140,,,,,140,75,M,Арсен Касєєв,B,142.5
Yes,Raw,1,Yuriy Dvizov,M_MR_6_AWPC,1947,Russia,75,,,,,115,122.5,-125,122.5,,,,,122.5,75,M,Юрий Двизов,B,
Yes,Raw,1,Vladyslav Polyvko,M_TR_1_AWPC,1998,Ukraine,81.6,,,,,70,75,-80,75,,,,,75,82.5,M,Владислав Поливко,B,
Yes,Raw,1,Vyacheslav Yakubchak,M_TR_2_AWPC,1995,Ukraine,82.2,,,,,117.5,122.5,-125,122.5,,,,,122.5,82.5,M,В'ячеслав Якубчак,B,
Yes,Raw,1,Ruslan Motuzkin,M_TR_3_AWPC,1993,Ukraine,82,,,,,145,-155,155,155,,,,,155,82.5,M,Руслан Мотузкін,B,158
Yes,Raw,1,Petro Magerovskyy,M_JR_AWPC,1992,Ukraine,80.6,,,,,-170,175,177.5,177.5,,,,,177.5,82.5,M,Петро Магеровський,B,
Yes,Raw,2,Andriy Verkhovtsev,M_JR_AWPC,1991,Ukraine,77.1,,,,,140,150,155,155,,,,,155,82.5,M,Андрій Верховцев,B,
Yes,Raw,3,Stanislav Shepil',M_JR_AWPC,1992,Ukraine,81.4,,,,,140,-145,-145,140,,,,,140,82.5,M,Станіслав Шепіль,B,
Yes,Raw,4,Igor Zhuk #1,M_JR_AWPC,1988,Ukraine,79.3,,,,,120,-135,-140,120,,,,,120,82.5,M,Игорь Жук,B,
Yes,Raw,1,Mikhail Nagovitsyn,M_OR_AWPC,1980,Russia,82.4,,,,,190,200,-202.5,200,,,,,200,82.5,M,Михаил Наговицын,B,
Yes,Raw,2,Andrey Sapozhonkov,M_OR_AWPC,1987,Russia,82.5,,,,,190,195,-205,195,,,,,195,82.5,M,Андрей Сапожонков,B,
Yes,Raw,3,Andriy Grinishin,M_OR_AWPC,1981,Ukraine,81.5,,,,,155,165,-172.5,165,,,,,165,82.5,M,Андрій Гринішин,B,
Yes,Raw,4,Yevgen Chernenko,M_OR_AWPC,1974,Ukraine,79.6,,,,,162.5,-170,-170,162.5,,,,,162.5,82.5,M,Євген Черненко,B,
Yes,Raw,5,Denis Zagrebin,M_OR_AWPC,1985,Russia,80.4,,,,,135,-145,-145,135,,,,,135,82.5,M,Денис Загребин,B,
Yes,Raw,6,Yaroslav Telker,M_OR_AWPC,1988,Ukraine,81.7,,,,,135,-150,-150,135,,,,,135,82.5,M,Ярослав Телькер,B,
Yes,Raw,7,Ivan Somko,M_OR_AWPC,1984,Ukraine,81.7,,,,,100,-105,105,105,,,,,105,82.5,M,Іван Сомко,B,
Yes,Raw,1,Rinat Zaripov,M_MR_1_AWPC,1970,Ukraine,80.9,,,,,150,157.5,165,165,,,,,165,82.5,M,Рінат Заріпов,B,
Yes,Raw,1,Yuriy Osadchenko,M_MR_3_AWPC,1961,Ukraine,80.2,,,,,150,155,-160,155,,,,,155,82.5,M,Юрій Осадченко,B,
Yes,Raw,1,Igor Kovalev #1,M_MR_4_AWPC,1957,Russia,78.6,,,,,140,145,-150,145,,,,,145,82.5,M,Игорь Ковалев,B,
Yes,Raw,2,Mykola Popov,M_MR_4_AWPC,1954,Ukraine,79.4,,,,,85,90,92.5,92.5,,,,,92.5,82.5,M,Микола Попов,B,
Yes,Raw,1,Volodymyr Nagalyuk,M_MR_5_AWPC,1951,Ukraine,81.5,,,,,60,70,-75,70,,,,,70,82.5,M,Володимир Нагалюк,B,
Yes,Raw,1,Aleksandr Tkachuk,M_MR_7_AWPC,1940,Russia,79.3,,,,,95,100,102.5,102.5,,,,,102.5,82.5,M,Александр Ткачук,B,
Yes,Raw,1,Oleksiy Slyusar,M_TR_2_AWPC,1995,Ukraine,85,,,,,80,90,100,100,,,,,100,90,M,Олексій Слюсар,B,
Yes,Raw,1,Arman Grigoryan,M_TR_3_AWPC,1994,Russia,86.1,,,,,175,185.5,187.5,187.5,,,,,187.5,90,M,Арман Григорян,B,191
Yes,Raw,1,Khasan Yusupov,M_JR_AWPC,1989,Russia,89.8,,,,,170,180,182.5,182.5,,,,,182.5,90,M,Хасан Юсупов,B,
Yes,Raw,1,Vladimir Konchakov,M_OR_AWPC,1973,Russia,88.4,,,,,180,190,192.5,192.5,,,,,192.5,90,M,Владимир Кончаков,B,
Yes,Raw,2,Maksim Fokin,M_OR_AWPC,1983,Ukraine,85.3,,,,,185,187.5,-192.5,187.5,,,,,187.5,90,M,Максим Фокін,B,
Yes,Raw,3,Dmytro Gak,M_OR_AWPC,1983,Ukraine,89.35,,,,,-170,170,182.5,182.5,,,,,182.5,90,M,Дмитро Гак,B,
Yes,Raw,4,Oleksandr Reva,M_OR_AWPC,1982,Ukraine,89.7,,,,,180,182.5,-185,182.5,,,,,182.5,90,M,Олександр Рева,B,
Yes,Raw,5,Khasan Yusupov,M_OR_AWPC,1989,Russia,89.8,,,,,170,180,182.5,182.5,,,,,182.5,90,M,Хасан Юсупов,B,
Yes,Raw,6,Oleksiy Slyusar,M_OR_AWPC,1976,Ukraine,90,,,,,165,-175,-175,165,,,,,165,90,M,Олексій Слюсар,B,
Yes,Raw,7,Ruslan Ivanenko,M_OR_AWPC,1976,Ukraine,83.9,,,,,150,155,-160,155,,,,,155,90,M,Руслан Іваненко,B,
Yes,Raw,8,Sergiy Chepets,M_OR_AWPC,1976,Ukraine,89.6,,,,,135,-145,145,145,,,,,145,90,M,Сергій Чепець,B,
Yes,Raw,1,Rostyslav Bondarenko,M_MR_1_AWPC,1972,Ukraine,87.9,,,,,160,170,175.5,175.5,,,,,175.5,90,M,Ростислав Бондаренко,B,177.5
Yes,Raw,2,Dmitriy Nikanorov,M_MR_1_AWPC,1971,Russia,88.7,,,,,145,-152.5,152.5,152.5,,,,,152.5,90,M,Дмитрий Никаноров,B,
Yes,Raw,3,Dmytro Bobrovskyy,M_MR_1_AWPC,1971,Ukraine,87.5,,,,,130,135,140,140,,,,,140,90,M,Дмитро Бобровський,B,
Yes,Raw,1,Ivan Epanov,M_MR_2_AWPC,1963,Ukraine,89.5,,,,,150,160,165,165,,,,,165,90,M,Іван Єпанов,B,
Yes,Raw,1,Elman Gadzhiev,M_MR_3_AWPC,1959,Ukraine,88.4,,,,,140,155,161,161,,,,,161,90,M,Ельман Гаджієв,B,
Yes,Raw,1,Ivan Kucherenko,M_TR_3_AWPC,1993,Ukraine,99.4,,,,,145,-160,-160,145,,,,,145,100,M,Іван Кучеренко,B,
Yes,Raw,2,Sergiy Kazenko,M_TR_3_AWPC,1994,Ukraine,97.9,,,,,100,110,-120,110,,,,,110,100,M,Сергій Казенко,B,
Yes,Raw,1,Dmytro Lytvynenko,M_JR_AWPC,1989,Ukraine,98.6,,,,,180,192.5,-195,192.5,,,,,192.5,100,M,Дмитро Литвиненко,B,
Yes,Raw,2,Yevgen Moiseev,M_JR_AWPC,1991,Ukraine,97,,,,,180,185,-192.5,185,,,,,185,100,M,Євген Моїсеєв,B,
Yes,Raw,1,Vitaliy Pan,M_OR_AWPC,1987,Ukraine,97.9,,,,,190,195,-200,195,,,,,195,100,M,Віталій Пан,B,
Yes,Raw,2,Dmytro Lytvynenko,M_OR_AWPC,1989,Ukraine,98.6,,,,,180,192.5,-195,192.5,,,,,192.5,100,M,Дмитро Литвиненко,B,
Yes,Raw,3,Mykhaylo Stadnyk,M_OR_AWPC,1982,Ukraine,98.5,,,,,180,-187.5,-187.5,180,,,,,180,100,M,Михайло Стадник,B,
Yes,Raw,4,Denis Demb,M_OR_AWPC,1979,Russia,98.6,,,,,-152.5,155,162.5,162.5,,,,,162.5,100,M,Денис Демб,B,
Yes,Raw,DQ,Sergey Stroganov,M_OR_AWPC,1975,Russia,99,,,,,-135,-135,-135,,,,,,,100,M,Сергей Строганов,B,
Yes,Raw,1,Temur Yuldashev,M_MR_1_AWPC,1969,Ukraine,99.4,,,,,185,192.5,197.5,197.5,,,,,197.5,100,M,Темур Юлдашев,B,
Yes,Raw,2,Volodymyr Zolotashko,M_MR_1_AWPC,1971,Ukraine,99.9,,,,,180,-185,-195,180,,,,,180,100,M,Володимир Золоташко,B,
Yes,Raw,1,Sergiy Kolesnik,M_MR_2_AWPC,1963,Ukraine,99.4,,,,,135,145,155,155,,,,,155,100,M,Сергій Колесник,B,
Yes,Raw,2,Volodymyr Chygyrynskyy,M_MR_2_AWPC,1962,Ukraine,95.5,,,,,130,135,,135,,,,,135,100,M,Володимир Чигиринський,B,
Yes,Raw,1,Volodymyr Korshunov,M_MR_6_AWPC,1942,Ukraine,97.7,,,,,130,137.5,-142.5,137.5,,,,,137.5,100,M,Володимир Коршунов,B,
Yes,Raw,DD,Mykhaylo Krotov,M_JR_AWPC,1989,Ukraine,107.6,,,,,180,-190,-195,180,,,,,,110,M,Михайло Кротов,B,
Yes,Raw,1,Konstantin Koshechkin,M_OR_AWPC,1973,Russia,109.9,,,,,220,225,-227.5,225,,,,,225,110,M,Константин Кошечкин,B,
Yes,Raw,2,Dmitriy Tenetko,M_OR_AWPC,1975,Azerbaijan,109.9,,,,,212.5,217.5,-227.5,217.5,,,,,217.5,110,M,Дмитрий Тенетко,B,
Yes,Raw,3,Ruslan Rudenko,M_OR_AWPC,1982,Ukraine,106.5,,,,,200,-210,-210,200,,,,,200,110,M,Руслан Руденко,B,
Yes,Raw,4,Aleksandr Belikov,M_OR_AWPC,1974,Russia,107.1,,,,,150,157.5,-162.5,157.5,,,,,157.5,110,M,Александр Беликов,B,
Yes,Raw,5,Vladimir Sych,M_OR_AWPC,1981,Russia,107.3,,,,,145,152.5,157.5,157.5,,,,,157.5,110,M,Владимир Сыч,B,
Yes,Raw,6,Mikhail Khomutov,M_OR_AWPC,1981,Russia,103.2,,,,,150,-167.5,-167.5,150,,,,,150,110,M,Михаил Хомутов,B,
Yes,Raw,1,Dmytro Grygoryev,M_MR_1_AWPC,1971,Ukraine,102.8,,,,,140,150,-160,150,,,,,150,110,M,Дмитро Григорь'єв,B,
Yes,Raw,2,Pavlo Kipnyak,M_MR_1_AWPC,1969,Ukraine,101.5,,,,,130,140,-145,140,,,,,140,110,M,Павло Кіпняк,B,
Yes,Raw,1,Surupasha Bambatgireev,M_MR_2_AWPC,1966,Ukraine,107.9,,,,,167.5,177.5,-190.5,177.5,,,,,177.5,110,M,Сурупаша Бамбатгіреєв,B,
Yes,Raw,1,Sergiy Zhabitenko,M_MR_3_AWPC,1959,Ukraine,109.5,,,,,125,140,-145,140,,,,,140,110,M,Сергій Жабітенко,B,
Yes,Raw,1,Michael Sweeney,M_MR_5_AWPC,1952,USA,107.2,,,,,-100,110,125,125,,,,,125,110,M,,B,135.5
Yes,Raw,1,Sergiy Pysarenko,M_TR_2_AWPC,1996,Ukraine,113.7,,,,,120,125,130,130,,,,,130,125,M,Сергій Писаренко,B,
Yes,Raw,1,Anton Yuzhakov,M_TR_3_AWPC,1993,Ukraine,110.4,,,,,190,200,207.5,207.5,,,,,207.5,125,M,Антон Южаков,B,
Yes,Raw,1,Andrei Zavgorodnyy,M_OR_AWPC,1981,Russia,121.3,,,,,-242.5,242.5,-252.5,242.5,,,,,242.5,125,M,Андрей Завгородный,B,
Yes,Raw,1,Oleksandr Stryga,M_MR_1_AWPC,1967,Ukraine,119.3,,,,,210,-217.5,220,220,,,,,220,125,M,Олександр Стрига,B,
Yes,Raw,2,Vladislav Marchenko,M_MR_1_AWPC,1967,Ukraine,113.6,,,,,145,-150,150,150,,,,,150,125,M,Владислав Марченко,B,
Yes,Raw,1,Andrei Stolbov,M_MR_2_AWPC,1964,Russia,114.7,,,,,170,175,180,180,,,,,180,125,M,Андрей Столбов,B,
Yes,Raw,1,Viktor Kurochkin,M_MR_4_AWPC,1955,Ukraine,111,,,,,130,140,,140,,,,,140,125,M,Віктор Курочкін,B,
Yes,Raw,1,Andriy Pavlenko,M_JR_AWPC,1989,Ukraine,130.3,,,,,195,205,-212.5,205,,,,,205,140,M,Андрій Павленко,B,
Yes,Raw,1,Dmytro Golovynskyy,M_OR_AWPC,1988,Ukraine,127.1,,,,,205,217.5,222.5,222.5,,,,,222.5,140,M,Дмитро Головинський,B,
Yes,Raw,2,Yuriy Gordyakov,M_OR_AWPC,1976,Russia,125.1,,,,,210,-215,-215,210,,,,,210,140,M,Юрий Гордяков,B,
Yes,Raw,3,Andriy Pavlenko,M_OR_AWPC,1989,Ukraine,130.3,,,,,195,205,-212.5,205,,,,,205,140,M,Андрій Павленко,B,
Yes,Raw,4,Oleg Afanasyev #1,M_OR_AWPC,1977,Ukraine,129.3,,,,,177.5,182.5,185,185,,,,,185,140,M,Олег Афанась'єв,B,
Yes,Raw,1,Dmytro Parapanov,M_MR_1_AWPC,1969,Ukraine,137,,,,,160,170,180,180,,,,,180,140,M,Дмитро Парапанов,B,
Yes,Raw,1,Oleksandr Kalkutin,M_MR_2_AWPC,1965,Ukraine,127,,,,,160,170,175,175,,,,,175,140,M,Олександр Калкутін,B,
Yes,Raw,2,Yevgen Shuturminskyy,M_MR_2_AWPC,1967,Ukraine,137.2,,,,,150,160,170,170,,,,,170,140,M,Євген Шутурмінський,B,
Yes,Raw,1,Mykhailo Nevzorov,M_MR_3_AWPC,1961,Ukraine,135,,,,,195,-207.5,207.5,207.5,,,,,207.5,140,M,Михайло Невзоров,B,
Yes,Raw,1,Sergiy Veselovskiy,M_OR_AWPC,1967,Ukraine,143.7,,,,,200,210,215,215,,,,,215,140+,M,Сергій Веселовський,B,
Yes,Raw,2,Roman Marachev,M_OR_AWPC,1978,Russia,140.7,,,,,200,-207.5,-207.5,200,,,,,200,140+,M,Роман Марачев,B,
Yes,Raw,1,Sergiy Veselovskiy,M_MR_2_AWPC,1967,Ukraine,143.7,,,,,200,210,215,215,,,,,215,140+,M,Сергій Веселовський,B,
Yes,Multi-ply,1,Natalya Blinkova,F_JEM_AWPC,1991,Russia,51.6,,,,,75,80,85,85,,,,,85,52,F,Наталья Блинкова,B,
Yes,Multi-ply,1,Lilia Prots,F_OEM_AWPC,1974,Ukraine,52,,,,,55,60,62.5,62.5,,,,,62.5,52,F,Лілія Проць,B,
Yes,Multi-ply,1,Anna Konoval,F_OEM_AWPC,1984,Ukraine,54.7,,,,,105,-112.5,-112.5,105,,,,,105,56,F,Анна Коновал,B,
Yes,Multi-ply,2,Mariya Pustovit,F_OEM_AWPC,1985,Russia,54.1,,,,,85,-90,90,90,,,,,90,56,F,Мария Пустовит,B,
Yes,Multi-ply,1,Iryna Zhelyazkova,F_OEM_AWPC,1984,Ukraine,67.1,,,,,80,-90,-90,80,,,,,80,67.5,F,Ірина Желязкова,B,
Yes,Multi-ply,1,Inna Yudina,F_OEM_AWPC,1978,Ukraine,75,,,,,80,-90,-90,80,,,,,80,75,F,Інна Юдіна,B,
Yes,Multi-ply,1,Vladislav Bondarenko,M_TEM_1_AWPC,1999,Ukraine,32.3,,,,,40,45,-47.5,45,,,,,45,52,M,Владислав Бондаренко,B,
Yes,Multi-ply,2,Yegor Kurochkin,M_TEM_1_AWPC,1999,Ukraine,42,,,,,35,40,-42.5,40,,,,,40,52,M,Єгор Курочкін,B,
Yes,Multi-ply,1,Igor Artemyev,M_MEM_1_AWPC,1971,Russia,55.4,,,,,120,127.5,-132.5,127.5,,,,,127.5,56,M,Игорь Артемьев,B,
Yes,Multi-ply,1,Sergiy Boryuk,M_OEM_AWPC,1985,Ukraine,59.2,,,,,145,-155,155,155,,,,,155,60,M,Сергій Борюк,B,
Yes,Multi-ply,1,Oleg Artemyev,M_MEM_1_AWPC,1971,Russia,58.7,,,,,130,137.5,-145,137.5,,,,,137.5,60,M,Олег Артемьев,B,
Yes,Multi-ply,1,Volodymyr Kovalenko,M_MEM_2_AWPC,1965,Ukraine,59.3,,,,,105,112.5,-120,112.5,,,,,112.5,60,M,Володимир Коваленко,B,
Yes,Multi-ply,1,Oleg Buchnev,M_TEM_2_AWPC,1995,Russia,65.5,,,,,140,146,150,150,,,,,150,67.5,M,Олег Бучнев,B,
Yes,Multi-ply,1,Artur Abdyushev,M_TEM_3_AWPC,1993,Russia,65.9,,,,,155,162.5,-170,162.5,,,,,162.5,67.5,M,Артур Абдюшев,B,
Yes,Multi-ply,2,Stanislav Chygyryns'kyy,M_TEM_3_AWPC,1994,Ukraine,67.4,,,,,90,100,105,105,,,,,105,67.5,M,Станіслав Чигиринський,B,
Yes,Multi-ply,1,Stanislav Chygyryns'kyy,M_OEM_AWPC,1994,Ukraine,67.4,,,,,90,100,105,105,,,,,105,67.5,M,Станіслав Чигиринський,B,
Yes,Multi-ply,1,Arman Baladyan,M_JEM_AWPC,1991,Ukraine,74,,,,,130,140,-150,140,,,,,140,75,M,Арман Баладян,B,
Yes,Multi-ply,1,Anton Fedorenko,M_OEM_AWPC,1985,Ukraine,74.3,,,,,-160,160,172.5,172.5,,,,,172.5,75,M,Антон Федоренко,B,
Yes,Multi-ply,2,Oleksiy Slyuschenko,M_OEM_AWPC,1984,Ukraine,74.6,,,,,150,160,170,170,,,,,170,75,M,Олексій Слющенко,B,
Yes,Multi-ply,3,Vladyslav Ilmatov,M_OEM_AWPC,1963,Ukraine,74.9,,,,,-120,120,130,130,,,,,130,75,M,Владислав Ільматов,B,
Yes,Multi-ply,1,Yuriy Volkov,M_MEM_1_AWPC,1972,Russia,73.25,,,,,135,140,-147.5,140,,,,,140,75,M,Юрий Волков,B,
Yes,Multi-ply,1,Vladyslav Ilmatov,M_MEM_2_AWPC,1963,Ukraine,74.9,,,,,-120,120,130,130,,,,,130,75,M,Владислав Ільматов,B,
Yes,Multi-ply,1,Denys Rekhletskyy,M_JEM_AWPC,1991,Ukraine,75.15,,,,,170,-185,185,185,,,,,185,82.5,M,Денис Рехлецький,B,
Yes,Multi-ply,1,Andriy Dyatlov,M_OEM_AWPC,1985,Ukraine,78.1,,,,,175,190,202.5,202.5,,,,,202.5,82.5,M,Андрій Дятлов,B,
Yes,Multi-ply,2,Konstantin Sapunkov,M_OEM_AWPC,1981,Russia,81.3,,,,,190,-200,-202.5,190,,,,,190,82.5,M,Константин Сапунков,B,
Yes,Multi-ply,1,Rinat Zaripov,M_MEM_1_AWPC,1970,Ukraine,82.4,,,,,170,185,195,195,,,,,195,82.5,M,Рінат Заріпов,B,
Yes,Multi-ply,1,Gennadiy Yazev,M_JEM_AWPC,1990,Ukraine,88.4,,,,,195,-205,205,205,,,,,205,90,M,Геннадій Язєв,B,
Yes,Multi-ply,1,Roman Plakhotnyuk,M_OEM_AWPC,1986,Ukraine,85.6,,,,,235,240,,240,,,,,240,90,M,Роман Плахотнюк,B,
Yes,Multi-ply,2,Denys Borodenko,M_OEM_AWPC,1981,Ukraine,89.9,,,,,210,-220,220,220,,,,,220,90,M,Денис Бороденко,B,
Yes,Multi-ply,3,Maxym Trokhymchuk,M_OEM_AWPC,1981,Ukraine,85.7,,,,,-135,-135,135,135,,,,,135,90,M,Максим Трохимчук,B,
Yes,Multi-ply,1,Rostyslav Bondarenko,M_MEM_1_AWPC,1972,Ukraine,87.9,,,,,200,-210,210,210,,,,,210,90,M,Ростислав Бондаренко,B,
Yes,Multi-ply,1,Elman Gadzhiev,M_MEM_3_AWPC,1959,Ukraine,88,,,,,190,200,-210,200,,,,,200,90,M,Ельман Гаджієв,B,
Yes,Multi-ply,1,Sergiy Kovalev,M_JEM_AWPC,1988,Ukraine,91.9,,,,,-175,175,185,185,,,,,185,100,M,Сергій Ковальов,B,
Yes,Multi-ply,1,Denys Kovalyov,M_OEM_AWPC,1978,Ukraine,99.4,,,,,210,-220,,210,,,,,210,100,M,Денис Ковальов,B,
Yes,Multi-ply,2,Sergiy Kovalev,M_OEM_AWPC,1988,Ukraine,91.9,,,,,-175,175,185,185,,,,,185,100,M,Сергій Ковальов,B,
Yes,Multi-ply,3,Dmytro Khaychenko,M_OEM_AWPC,1984,Ukraine,92.2,,,,,180,185,-190,185,,,,,185,100,M,Дмитро Хайченко,B,
Yes,Multi-ply,4,Volodymyr Chygyrynskyy,M_OEM_AWPC,1962,Ukraine,95.8,,,,,160,172.5,-177.5,172.5,,,,,172.5,100,M,Володимир Чигиринський,B,
Yes,Multi-ply,5,Viktor Bozhukha,M_OEM_AWPC,1978,Ukraine,97.4,,,,,160,-170,-175,160,,,,,160,100,M,Віктор Божуха,B,
Yes,Multi-ply,1,Volodymyr Chygyrynskyy,M_MEM_2_AWPC,1962,Ukraine,95.5,,,,,160,172.5,-177.5,172.5,,,,,172.5,100,M,Володимир Чигиринський,B,
Yes,Multi-ply,2,Igor Shubin,M_MEM_2_AWPC,1964,Ukraine,91.5,,,,,170,-175,-185,170,,,,,170,100,M,Ігор Шубін,B,
Yes,Multi-ply,1,Yevgen Golovchenko,M_MEM_6_AWPC,1946,Ukraine,98.7,,,,,100,-110,,100,,,,,100,100,M,Євген Головченко,B,
Yes,Multi-ply,1,Andriy Lomnitskiy,M_OEM_AWPC,1980,Ukraine,108.4,,,,,250,-260,-260,250,,,,,250,110,M,Андрій Ломницький,B,
Yes,Multi-ply,2,Gennadiy Larin,M_OEM_AWPC,1973,Ukraine,107.5,,,,,170,185,202.5,202.5,,,,,202.5,110,M,Геннадій Ларін,B,
Yes,Multi-ply,3,Borys Kovbasyuk,M_OEM_AWPC,1966,Ukraine,101.1,,,,,-190,190,-200,190,,,,,190,110,M,Борис Ковбасюк,B,
Yes,Multi-ply,1,Vladyslav Fesun,M_MEM_2_AWPC,1967,Ukraine,108.2,,,,,220,230,240,240,,,,,240,110,M,Владислав Фесун,B,
Yes,Multi-ply,2,Borys Kovbasyuk,M_MEM_2_AWPC,1966,Ukraine,101.1,,,,,-190,190,-200,190,,,,,190,110,M,Борис Ковбасюк,B,
Yes,Multi-ply,1,Oleksiy Syzonenko,M_OEM_AWPC,1988,Ukraine,121.6,,,,,240,250,-260,250,,,,,250,125,M,Олексій Сизоненко,B,
Yes,Multi-ply,1,Oleksandr Blagovidov,M_MEM_1_AWPC,1971,Ukraine,118.4,,,,,220,230,,230,,,,,230,125,M,Олександр Благовидов,B,
Yes,Multi-ply,1,Vasiliy Filatov,M_OEM_AWPC,1986,Russia,132.1,,,,,255,-270,-275,255,,,,,255,140,M,Василий Филатов,B,
Yes,Multi-ply,1,Dmytro Sharoyko,M_MEM_1_AWPC,1972,Ukraine,132,,,,,-280,-280,280,280,,,,,280,140,M,Дмитро Шаройко,B,
Yes,Raw,1,Yuliya Bakhir,F_OR_AWPC,1984,Russia,59.7,,,,,,,,,150,-165,-165,150,150,60,F,Юлия Бахир,D,
Yes,Raw,1,Oleksandr Artyukh,M_OR_AWPC,1993,Ukraine,59.7,,,,,,,,,150,170,-180,170,170,60,M,Олександр Артюх,D,
Yes,Raw,1,Sergey Alampiev,M_OR_AWPC,1957,Russia,66.9,,,,,,,,,180,200,205,205,205,67.5,M,Сергей Алампиев,D,
Yes,Raw,1,Ruzel Khabibulin,M_OR_AWPC,1983,Russia,73.1,,,,,,,,,220,260,-270,260,260,75,M,Рузель Хабибулин,D,
Yes,Raw,2,Yaroslav Litvinenko,M_OR_AWPC,1976,Ukraine,75,,,,,,,,,220,230,-240,230,230,75,M,Ярослав Литвиненко,D,
Yes,Raw,3,Zakir-Ogly Aliev Gidayat,M_OR_AWPC,1981,Ukraine,74.3,,,,,,,,,-200,205,215,215,215,75,M,Закір-Огли Алієв Гідаят,D,
Yes,Raw,1,Rinat Zaripov,M_OR_AWPC,1970,Ukraine,82.4,,,,,,,,,240,257.5,-270,257.5,257.5,82.5,M,Рінат Заріпов,D,
Yes,Raw,1,Aleksandr Nemchinov,M_OR_AWPC,1951,Russia,88.6,,,,,,,,,230,245,,245,245,90,M,Александр Немчинов,D,
Yes,Raw,2,Oleksandr Denisov #1,M_OR_AWPC,1992,Ukraine,84.2,,,,,,,,,210,230,-245,230,230,90,M,Олександр Денісов,D,
Yes,Raw,DQ,Sergey Larionov,M_OR_AWPC,1975,Russia,89.5,,,,,,,,,-250,-250,-250,,,90,M,Сергей Ларионов,D,
Yes,Raw,1,Vitaliy Alekseev #1,M_OR_AWPC,1988,Ukraine,93.8,,,,,,,,,270,-290,,270,270,100,M,Віталій Алексеєв,D,
Yes,Raw,2,Roman Kalinin,M_OR_AWPC,1990,Russia,97.9,,,,,,,,,192.5,202.5,212.5,212.5,212.5,100,M,Роман Калинин,D,
Yes,Raw,3,Vladimir Kalinin,M_OR_AWPC,1960,Russia,94.4,,,,,,,,,160,175,-190,175,175,100,M,Владимир Калинин,D,
Yes,Raw,1,Mikhaylo Anisimov,M_OR_AWPC,1985,Ukraine,105.3,,,,,,,,,260,280,-290,280,280,110,M,Михайло Анісімов,D,
Yes,Raw,2,Mikhail Khomutov,M_OR_AWPC,1981,Russia,104.9,,,,,,,,,-180,180,207.5,207.5,207.5,110,M,Михаил Хомутов,D,
Yes,Raw,1,Oleksandr Shvets,M_OR_AWPC,1971,Ukraine,114.5,,,,,,,,,190,200,205,205,205,125,M,Олександр Швець,D,
