Name,WeightClassKg,Division,Best3SquatKg,Best3BenchKg,Best3DeadliftKg,TotalKg,Sex,Event,Equipment,Place
Kimberly Person,56,F-T2,72.57,42.64,120.2,235.41,F,SBD,Single-ply,1
Cari Payne,67.5,F-T2,89.81,64.86,115.21,269.89,F,SBD,Single-ply,1
Janneil Hoffman,75,F-T3,74.84,52.62,120.2,247.66,F,SBD,Single-ply,1
Angella Carlson,56,F-O,107.5,82.55,122.47,312.53,F,SBD,Single-ply,1
Nicole Royals,67.5,F-O,84.82,42.64,110.22,237.68,F,SBD,Single-ply,1
Paula Pierce-Rippel,82.5,F-O,117.48,74.84,127.46,319.78,F,SBD,Single-ply,1
Brendan Hurley,82.5,M-T2,175.09,110.22,205.02,490.33,M,SBD,Single-ply,1
Jon Christensen,82.5,M-T2,150.14,97.52,182.34,430.01,M,SBD,Single-ply,2
Louden Whrilwind Hors,90,M-T2,62.6,107.5,120.2,290.3,M,SBD,Single-ply,1
Andrew Reiman,110,M-T2,205.02,84.82,229.97,519.82,M,SBD,Single-ply,1
Monte Mason,67.5,M-M2,212.28,120.2,184.61,517.1,M,SBD,Single-ply,1
Cuong Van Tran,90,M-M1,277.6,145.15,264.9,687.65,M,SBD,Single-ply,1
Tim Driscoll,125,M-M2,215,167.38,249.93,632.31,M,SBD,Single-ply,1
Joe Kunzman,125,M-M1,262.63,157.4,254.92,674.95,M,SBD,Single-ply,1
Jerry Ochs,75,M-M6,137.44,94.8,160.12,392.36,M,SBD,Single-ply,1
Ken Leisinger,82.5,M-M3,117.48,107.5,172.37,397.35,M,SBD,Single-ply,1
Harlan Payne,82.5,M-M4,115.21,89.81,132.45,337.47,M,SBD,Single-ply,1
Ron Root,100,M-M4,117.48,92.53,165.11,375.12,M,SBD,Single-ply,1
Monte Mason,67.5,M-O,212.28,120.2,184.61,517.1,M,SBD,Single-ply,1
Matt Poss,67.5,M-O,152.41,122.47,165.11,439.98,M,SBD,Single-ply,2
Brad Rilling,75,M-O,197.31,147.42,227.7,572.43,M,SBD,Single-ply,1
Jerry Ochs,75,M-O,137.44,94.8,160.12,392.36,M,SBD,Single-ply,2
Todd Craig,82.5,M-O,210.01,115.21,229.97,555.2,M,SBD,Single-ply,1
Jeff Blindauer,90,M-O,237.68,197.31,267.62,702.61,M,SBD,Single-ply,1
Cuong Van Tran,90,M-O,277.6,145.15,264.9,687.65,M,SBD,Single-ply,2
Max Rippel,90,M-O,229.97,177.35,259.91,667.23,M,SBD,Single-ply,3
Mike Reed,100,M-O,239.95,157.4,267.62,664.97,M,SBD,Single-ply,1
Joe Reiter,100,M-O,160.12,125.19,170.1,455.41,M,SBD,Single-ply,2
Troy Knebel,110,M-O,262.63,170.1,249.93,682.66,M,SBD,Single-ply,1
Joe Kunzman,125,M-O,262.63,157.4,254.92,674.95,M,SBD,Single-ply,1
Brian Waala,125,M-O,227.7,160.12,219.99,607.81,M,SBD,Single-ply,2
Jonathon Leo,125+,M-O,294.84,224.98,239.95,759.77,M,SBD,Single-ply,1
Michael Ricker,125+,M-O,104.78,182.34,274.88,562,M,SBD,Single-ply,2
Jamison Daugherty,125+,M-O,92.53,89.81,137.44,319.78,M,SBD,Single-ply,3
Kimberly Person,56,F-T2,,42.64,,42.64,F,B,Single-ply,1
Cari Payne,67.5,F-T2,,64.86,,64.86,F,B,Single-ply,1
Janneil Hoffman,75,F-T3,,52.62,,52.62,F,B,Single-ply,1
Paula Pierce-Rippel,82.5,F-O,,74.84,,74.84,F,B,Single-ply,1
Brendan Hurley,82.5,M-T2,,110.22,,110.22,M,B,Single-ply,1
Jon Christensen,82.5,M-T2,,97.52,,97.52,M,B,Single-ply,2
Stuart Junker,100,M-M1,,172.37,,172.37,M,B,Single-ply,1
Brian Hunhoff,100,M-M1,,127.46,,127.46,M,B,Single-ply,2
Mike Bridge,110,M-M2,,187.33,,187.33,M,B,Single-ply,1
Kevin McKnight,110,M-M2,,147.42,,147.42,M,B,Single-ply,2
Tim Driscoll,125,M-M2,,167.38,,167.38,M,B,Single-ply,1
Ken Leisinger,82.5,M-M3,,107.5,,107.5,M,B,Single-ply,1
Harlan Payne,82.5,M-M4,,89.81,,89.81,M,B,Single-ply,1
Gregory Hunter,90,M-M3,,120.2,,120.2,M,B,Single-ply,1
Jerry Ochs,75,M-M6,,94.8,,94.8,M,B,Single-ply,1
Jerry Ochs,75,M-O,,94.8,,94.8,M,B,Single-ply,1
Mark Shane,82.5,M-O,,160.12,,160.12,M,B,Single-ply,1
Curt Marchiando,82.5,M-O,,147.42,,147.42,M,B,Single-ply,2
Bill Kliche,82.5,M-O,,147.42,,147.42,M,B,Single-ply,3
Ken Leisinger,82.5,M-O,,107.5,,107.5,M,B,Single-ply,4
Jeff Blindauer,90,M-O,,197.31,,197.31,M,B,Single-ply,1
Max Rippel,90,M-O,,177.35,,177.35,M,B,Single-ply,2
Stuart Junker,100,M-O,,172.37,,172.37,M,B,Single-ply,2
Brian Hunhoff,100,M-O,,127.46,,127.46,M,B,Single-ply,3
Tim Anderson,100,M-O,,254.92,,254.92,M,B,Single-ply,1
Brad Slining,110,M-O,,197.77,,197.77,M,B,Single-ply,1
Mike Bridge,110,M-O,,187.33,,187.33,M,B,Single-ply,2
Kevin McKnight,110,M-O,,147.42,,147.42,M,B,Single-ply,3
Dale Pearce,125,M-O,,172.37,,172.37,M,B,Single-ply,1
Jonathon Leo,125+,M-O,,224.98,,224.98,M,B,Single-ply,1
Jamison Daugherty,125+,M-O,,89.81,,89.81,M,B,Single-ply,2
